Program:    MAESTRA                                                                         
Control:    Run a single tree in a 10x10 stand of trees.                                    
Trees:      10x10 trees plot, 1000 trees on one hectare plot.                               
Structure:                                                                      Multispecies
Physiology:                                                                     Multispecies
Met data:   HFE Met station 2013-9-14 to 2014-5-26                                          
Water bal.:                                                                                 
                                                                                
DOY: simulation date
Tree: tree number
Spec: tree species number
absPAR:   absorbed PAR              MJ tree-1 d-1
absNIR:   absorbed NIR              MJ  tree-1 d-1
absTherm: absorbed thermal          MJ tree-1 d-1
totPs: gross photosynthesis         mol tree-1 d-1
totRf: daily foliar respiration     mol tree-1 d-1
netPs: photosyn. net of foliar resp   mol tree-1 d-1
totLE1: daily transpiration         mol H2O tree-1 d-1
totLE2: daily transpirn (CANOPY calc) mol H2O m-2 d-1
totH:  daily sensible heat flux     MJ tree-1 d-1
                                                                                
Columns: DOY Tree Spec absPAR absNIR absTherm totPs totRf netPs totLE1 totLE2 totH
      1   45    1      10.8538       3.1606     -36.1772       1.4923       0.2505       1.2418     122.0002      15.0419      -9.0270
      2   45    1      12.5502       3.6386     -36.2590       1.7273       0.2359       1.4914     139.1229      17.2408      -9.1645
      3   45    1       3.4670       0.9969     -35.3528       0.7145       0.2223       0.4922      28.4149       4.5058     -14.6286
      4   45    1      13.6541       3.9361     -38.4708       1.7716       0.2883       1.4833     183.0902      22.1938     -10.8113
      5   45    1      16.1295       4.6687     -40.2914       1.8753       0.3433       1.5320     268.7376      32.0154     -12.9123
      6   45    1      17.6140       5.1028     -40.1086       2.0974       0.2876       1.8098     277.1649      32.8988     -11.4156
      7   45    1      17.0003       4.9284     -38.5213       2.1170       0.2261       1.8910     240.3600      28.7085      -9.9076
      8   45    1      18.1415       5.2623     -39.4085       2.1888       0.2416       1.9473     240.0332      28.6856      -9.0141
      9   45    1      17.5239       5.0906     -41.0127       2.0884       0.3028       1.7856     270.2820      32.3230     -12.0434
     10   45    1      19.1246       5.5567     -42.8560       2.1748       0.3481       1.8267     284.9895      33.8973     -11.5474
     11   45    1      14.0852       4.0641     -43.2862       1.7121       0.3962       1.3159     245.2246      29.4345     -15.7040
     12   45    1      19.3436       5.6364     -45.6396       2.0676       0.4601       1.6075     336.7720      39.6020     -15.0449
     13   45    1      19.9053       5.7974     -44.9487       2.2243       0.3855       1.8387     342.6613      40.6579     -14.3506
     14   45    1      20.6319       6.0208     -43.7532       2.3938       0.2930       2.1009     314.3091      37.1009     -11.5679
     15   45    1      20.9989       6.1375     -45.2622       2.3215       0.3748       1.9467     359.7495      42.4634     -14.1734
     16   45    1      21.2564       6.2160     -45.9871       2.4372       0.3495       2.0877     343.3421      40.5337     -13.0623
     17   45    1      21.1608       6.2047     -47.6217       2.3031       0.4281       1.8750     351.7047      41.4508     -14.7287
     18   45    1      15.3852       4.4975     -47.3203       1.8545       0.4536       1.4010     291.1120      34.4677     -18.5961
     19   45    1      22.0597       6.4774     -48.1584       2.5297       0.3785       2.1512     350.3538      41.3141     -13.3551
     20   45    1      13.2436       3.8701     -44.3269       1.9810       0.2955       1.6855     205.6901      24.6591     -15.1395
     21   45    1      22.8853       6.7467     -46.8884       2.6235       0.3325       2.2910     352.1134      41.2274     -12.3191
     22   45    1      21.3739       6.3137     -49.0230       2.4472       0.4341       2.0131     353.5443      41.5366     -15.0412
     23   45    1      23.4476       6.9291     -53.0184       2.2729       0.6050       1.6679     436.0044      50.2469     -18.7923
     24   45    1      20.1825       5.9893     -49.4983       2.4465       0.4076       2.0390     319.0977      37.6172     -14.4447
     25   45    1      20.5443       6.0880     -48.4122       2.5767       0.3506       2.2261     290.0679      34.4167     -12.4724
     26   45    1      24.6491       7.3045     -52.7661       2.5740       0.5374       2.0366     402.8174      46.7244     -15.2283
     27   45    1      24.1382       7.1492     -57.5033       2.0915       0.7866       1.3049     423.4202      47.7967     -19.8040
     28   45    1      24.4018       7.2436     -53.4511       2.6818       0.5042       2.1776     376.4716      44.0843     -14.3561
     29   45    1      26.3632       7.8438     -55.8888       2.5278       0.6330       1.8947     423.5226      48.5914     -16.3370
     30   45    1      25.2865       7.5395     -58.4885       2.3767       0.7901       1.5866     373.5058      43.1725     -16.0535
     31   45    1      25.3565       7.5808     -53.6299       2.9259       0.4103       2.5156     391.4290      45.5418     -13.7284
     32   45    1      27.2709       8.1548     -53.2963       3.0268       0.4021       2.6247     397.6751      46.0153     -11.9201
     33   45    1      27.1492       8.1211     -56.5652       2.8084       0.5456       2.2628     469.9183      54.2864     -17.3455
     34   45    1      20.3504       6.0977     -57.7588       2.0943       0.6569       1.4374     395.1117      45.3533     -24.8295
     35   45    1      23.9233       7.1440     -52.8830       2.8658       0.4018       2.4640     363.5778      42.3128     -13.5826
     36   45    1      26.7571       8.0258     -53.2803       3.0112       0.4254       2.5859     376.0428      43.6889     -13.2032
     37   45    1      20.5305       6.1065     -53.8828       2.5323       0.5543       1.9780     309.6553      36.3734     -18.0319
     38   45    1      18.0932       5.3670     -56.2778       2.0886       0.7315       1.3571     305.9900      35.5438     -20.2880
     39   45    1       9.5440       2.8231     -53.9959       1.5064       0.5504       0.9560     115.7865      14.7384     -20.2956
     40   45    1      25.2621       7.5530     -59.8571       2.5903       0.7719       1.8184     455.3871      52.3241     -22.0166
     41   45    1      28.1668       8.4194     -56.2352       3.1652       0.4718       2.6933     446.7218      51.7461     -16.3267
     42   45    1      21.1917       6.3046     -51.9149       2.7789       0.3758       2.4031     335.1547      39.2132     -17.4443
     43   45    1      30.0532       9.0134     -55.6786       3.2636       0.4416       2.8220     426.3218      49.1031     -12.8378
     44   45    1      24.7278       7.3790     -55.4131       2.9556       0.4732       2.4825     365.6079      42.9707     -15.9994
     45   45    1      20.1360       6.0052     -55.5267       2.5986       0.5248       2.0738     282.9939      33.5277     -17.8052
     46   45    1      11.8389       3.5202     -53.2270       1.6954       0.4380       1.2574     157.0196      19.1216     -21.3466
     47   45    1      29.2278       8.7171     -57.2446       3.3112       0.4458       2.8654     386.9735      44.6456     -12.5414
     48   45    1      30.3219       9.1361     -59.7699       3.3006       0.5278       2.7729     402.1751      46.5382     -13.0397
     49   45    1      25.5085       7.6639     -59.9811       3.0241       0.5506       2.4735     339.4395      39.9534     -16.2074
     50   45    1      27.2617       8.2554     -64.1605       2.7676       0.7638       2.0038     404.0653      46.1230     -19.6503
     51   45    1      26.0043       7.7294     -65.5931       2.7038       0.8406       1.8632     413.2132      48.1690     -23.2575
     52   45    1      33.3352      10.1032     -62.6015       3.6079       0.4703       3.1376     412.7776      46.9007     -11.1142
     53   45    1      22.4264       6.6356     -60.7617       2.9759       0.4607       2.5153     321.6156      37.7021     -19.6138
     54   45    1      33.1557      10.0523     -63.7678       3.6023       0.5423       3.0599     456.9495      52.5594     -14.7242
     55   45    1      33.2860      10.1135     -69.4326       3.3054       0.8143       2.4911     498.4868      56.7246     -22.4263
     56   45    1      30.8585       9.3426     -73.1182       2.7396       1.1619       1.5777     457.2738      50.9452     -25.9927
     57   45    1      33.3662      10.1269     -73.1691       3.0690       0.9969       2.0721     530.7929      60.1291     -25.5269
     58   45    1       7.2288       2.1613     -60.2337       1.5038       0.4664       1.0374      45.8281       8.0414     -27.9102
     59   45    1      13.2143       3.9567     -60.5555       2.1836       0.4626       1.7210      49.6851       8.2261     -20.5113
     60   45    1      22.4682       6.7504     -66.3449       2.9467       0.5918       2.3549     180.3938      22.0716     -18.5987
     61   45    1      36.9776      11.3384     -71.2390       3.8100       0.7581       3.0519     509.3853      57.7597     -18.8764
     62   45    1      40.4198      12.3811     -73.3919       3.9810       0.7675       3.2135     612.6868      69.1615     -20.9515
     63   45    1      25.2152       7.7052     -67.8799       3.1714       0.6151       2.5562     300.4201      35.4368     -21.6304
     64   45    1      17.1207       5.1383     -65.6521       2.7313       0.5422       2.1891     145.7656      18.8325     -23.0706
     65   45    1       9.9491       2.9863     -64.4726       1.9453       0.4764       1.4689      52.6228       9.4683     -27.2365
     66   45    1       9.2497       2.7758     -65.8164       1.8073       0.5144       1.2930      64.3891      10.2626     -29.4215
     67   45    1      36.1992      10.9764     -72.4714       4.1351       0.7234       3.4117     404.0888      46.4737     -15.2265
     68   45    1      41.3603      12.7193     -74.7848       4.1908       0.8125       3.3783     479.6011      53.8374     -13.7360
     69   45    1      32.2543       9.8598     -73.2162       3.7306       0.8185       2.9120     369.4623      42.9535     -18.9186
     70   45    1      14.5171       4.4179     -70.9274       2.1042       0.7244       1.3797     114.2914      15.2452     -28.0128
     71   45    1      26.7710       8.0960     -71.1077       3.6366       0.7189       2.9178     187.7762      23.9864     -15.9960
     72   45    1      39.3237      12.1752     -73.5977       4.2371       0.7078       3.5293     432.0503      48.6283     -12.9998
     73   45    1      32.5259      10.0225     -71.2488       3.9333       0.6473       3.2860     357.5458      41.2823     -16.5828
     74   45    1      39.7481      12.1631     -72.7103       4.3596       0.6346       3.7250     475.4715      53.4785     -14.2232
     75   45    1      44.1268      13.6740     -76.5223       4.4011       0.7553       3.6458     549.0063      61.2426     -14.6014
     76   45    1      39.8318      12.3802     -79.8810       3.8485       1.0673       2.7812     518.0236      57.7542     -20.6872
     77   45    1      12.9587       3.8755     -73.2966       2.2345       0.7049       1.5297     107.6368      14.8423     -30.8498
     78   45    1      31.4394       9.5717     -74.4014       3.9420       0.6712       3.2708     362.2546      41.7956     -19.8664
     79   45    1      36.0322      11.0442     -75.5566       4.2498       0.7083       3.5415     401.6718      46.0215     -16.9627
     80   45    1      43.4210      13.3928     -79.2678       4.4881       0.8157       3.6724     532.7068      59.7580     -16.0307
     81   45    1      47.3491      14.7709     -81.7787       4.5559       0.9250       3.6310     590.2296      65.3842     -15.5174
     82   45    1      38.3846      11.8424     -84.2786       4.0119       1.2342       2.7778     488.5274      55.0175     -22.8746
     83   45    1      43.1619      13.3853     -81.6991       4.5043       0.8306       3.6738     545.2125      61.1783     -17.4887
     84   45    1      48.6834      15.2413     -81.1261       4.8622       0.7289       4.1332     629.5081      69.5993     -15.1840
     85   45    1      46.3209      14.4034     -81.0436       4.8142       0.8041       4.0102     627.0804      70.1397     -17.9678
     86   45    1      49.2662      15.4314     -84.6212       4.7600       1.0078       3.7522     647.6288      71.5030     -17.1363
     87   45    1      28.1289       8.6695     -83.7908       3.4922       1.1745       2.3177     364.7731      42.2216     -29.6386
     88   45    1      49.2243      15.4517     -91.3555       4.3942       1.4160       2.9782     773.4628      84.9997     -26.1943
     89   45    1      50.5036      15.8861     -88.2086       4.8113       1.1334       3.6779     707.5353      78.0918     -20.0100
     90   45    1      47.4332      14.8744     -85.6926       4.8662       1.0398       3.8264     616.5804      68.5551     -17.9856
     91   45    1      51.5306      16.2154     -88.9295       4.9456       1.1875       3.7581     652.8207      71.9262     -16.7574
     92   45    1      27.0906       8.3958     -83.1613       3.6744       0.9876       2.6868     334.3749      39.1818     -29.0882
     93   45    1      38.0706      11.9225     -86.1521       4.4042       1.0518       3.3524     456.8699      51.7233     -22.1745
     94   45    1      39.2506      12.2502     -87.0558       4.6387       1.0728       3.5658     480.8701      55.1045     -22.5590
     95   45    1      52.8056      16.6890     -90.6572       5.2521       1.1514       4.1007     673.7578      74.3887     -16.8440
     96   45    1      46.6912      14.6660     -90.2486       4.8564       1.1360       3.7205     598.7026      66.5492     -20.9218
     97   45    1      53.7439      17.0409     -94.6401       5.0860       1.2973       3.7887     706.7549      77.4814     -19.8734
     98   45    1      46.8470      14.8975    -101.2460       3.9327       1.9825       1.9502     518.5460      56.1031     -23.9276
     99   45    1      49.7898      15.8478     -97.9756       5.0051       1.4611       3.5440     641.7184      70.7863     -22.1122
    100   45    1      41.1430      12.8867    -101.8607       4.0100       2.0043       2.0057     504.4821      55.6207     -30.3753
    101   45    1      26.5638       8.2633     -97.9404       3.1693       1.7700       1.3993     389.4113      43.9376     -41.4347
    102   45    1      14.0529       4.3599     -88.1783       2.5274       0.9346       1.5929     120.6573      15.9366     -38.6184
    103   45    1      10.0688       3.1289     -87.7659       1.9942       0.9245       1.0697      39.7661       8.3014     -40.0223
    104   45    1      52.5388      16.8088     -96.1747       5.4617       1.2382       4.2235     562.6329      61.3701     -14.6965
    105   45    1      44.4951      14.2864     -94.9492       5.1418       1.1584       3.9834     447.0495      50.2800     -18.8901
    106   45    1      52.6933      16.8493     -99.2381       5.3813       1.5141       3.8671     589.6608      64.8668     -17.6474
    107   45    1      57.6821      18.4911     -98.2847       5.9634       1.1814       4.7820     687.6771      75.6240     -14.9581
    108   45    1      58.2839      18.7416    -103.8492       5.2445       1.6859       3.5586     796.4184      86.5729     -23.2124
    109   45    1      56.2763      18.1853    -101.0648       5.6654       1.3981       4.2673     721.7501      78.9803     -19.8845
    110   45    1      45.2138      14.5473    -100.4853       5.0455       1.4675       3.5781     587.7184      65.5889     -27.1146
    111   45    1      28.6788       9.0282    -101.4970       3.4635       1.7879       1.6756     391.4499      44.0873     -37.5199
    112   45    1      42.9739      13.7982    -103.0091       4.4326       1.6664       2.7662     490.3894      54.3984     -23.6435
    113   45    1      59.2175      19.1400    -105.7555       5.7432       1.5645       4.1787     777.0109      84.3661     -21.4826
    114   45    1      57.8474      18.6353    -105.7795       6.0130       1.5528       4.4602     751.7005      82.7534     -22.1561
    115   45    1      62.5899      20.2302    -109.5703       5.8345       1.6446       4.1899     959.6616     104.7877     -28.8075
    116   45    1      20.7102       6.5334     -97.1621       3.3343       1.0565       2.2778     232.5445      28.0456     -40.3489
    117   45    1      18.1692       5.7407     -96.4852       3.0697       1.0061       2.0636     154.2885      19.3696     -39.7477
    118   45    1      28.2451       8.9434    -100.1752       4.3229       1.1753       3.1476     335.7889      39.3062     -37.1371
    119   45    1      45.3616      14.5422    -105.7255       5.5470       1.4327       4.1143     570.9270      64.1136     -29.1782
    120   45    1      56.8328      18.5427    -113.0552       5.7770       1.8725       3.9046     757.4882      82.4851     -27.8246
    121   45    1      56.0952      18.3737    -111.0876       5.9330       1.7725       4.1604     717.7682      78.5035     -25.2168
    122   45    1      62.6449      20.4305    -111.7241       6.4946       1.5855       4.9091     820.6800      89.3831     -22.4197
    123   45    1      67.1219      21.9444    -115.6986       6.5761       1.8327       4.7433     917.6775      99.4735     -23.4856
    124   45    1      65.7920      21.5425    -120.1392       5.9335       2.1799       3.7536     815.5873      87.4376     -23.9255
    125   45    1      68.6027      22.4926    -121.9136       6.0056       2.2787       3.7269     857.6568      91.1729     -23.6813
    126   45    1      67.1042      22.0712    -122.0340       6.0086       2.1804       3.8282     889.4889      94.8000     -26.9415
    127   45    1      69.1386      22.7216    -125.8017       5.7006       2.5904       3.1102     793.4825      84.2474     -22.6394
    128   45    1      59.1932      19.5085    -121.7879       6.3015       1.9855       4.3159     801.1348      87.5399     -30.8317
    129   45    1      33.2469      10.7725    -116.7343       4.5565       1.7804       2.7761     431.8110      49.3885     -40.0049
    130   45    1      29.7522       9.6312    -115.6818       4.6635       1.6354       3.0281     206.9852      26.9290     -33.2663
    131   45    1      10.9569       3.5365    -113.4116       2.2555       1.4557       0.7998      61.0248       9.7752     -49.4544
    132   45    1      25.0345       8.0847    -114.6222       4.2731       1.4997       2.7734     235.1099      29.1735     -40.4937
    133   45    1      38.0574      12.3296    -119.0870       5.5587       1.8319       3.7268     332.2871      39.5515     -35.4808
    134   45    1      42.3096      13.7836    -116.4747       5.9911       1.5579       4.4333     467.2177      53.3640     -33.8786
    135   45    1      22.9169       7.4046    -112.2684       4.1480       1.2864       2.8616     213.6938      26.5858     -40.6349
    136   45    1      72.2832      23.9627    -121.3397       7.6778       1.6517       6.0261     875.4279      93.8867     -18.0231
    137   45    1      72.8204      24.1555    -124.5872       7.4351       1.9271       5.5080     947.5163     101.9300     -22.3673
    138   45    1      72.4033      24.0405    -123.5115       7.6859       1.8325       5.8534     753.6277      79.4789      -8.1385
    139   45    1      72.0163      23.8912    -129.4495       7.1525       2.1755       4.9770     997.5007     107.4312     -24.0173
    140   45    1      72.9214      24.2376    -130.7829       6.5266       2.5716       3.9549     940.7383      99.8713     -22.4142
    141   45    1      61.5468      20.4151    -125.4226       6.2796       2.3646       3.9149     851.4211      91.5236     -28.1750
    142   45    1      61.0669      20.2282    -124.5793       6.3604       2.2267       4.1337     852.4165      91.9313     -28.4422
    143   45    1      72.8886      24.2462    -126.8509       7.5293       2.1320       5.3972    1015.3494     109.4528     -21.9653
    144   45    1      24.4802       8.0024    -115.2004       4.1116       1.6306       2.4810     219.5046      28.1093     -41.2285
    145   45    1      32.9292      10.7685    -114.4078       5.3253       1.5133       3.8121     440.4872      50.4583     -39.0727
    146   45    1      44.8726      14.6353    -116.4326       6.3322       1.5535       4.7787     615.9401      69.3550     -33.5715
    147   45    1      72.5561      24.1796    -124.8017       7.4981       2.0627       5.4354     902.9482      95.6943     -17.4993
    148   45    1      71.9155      23.9292    -125.8942       7.6590       2.0991       5.5599     819.5553      86.4893     -14.1018
    149   45    1      68.5291      22.8419    -131.2971       6.4055       2.5781       3.8274     886.4135      94.3511     -25.3531
    150   45    1      50.5407      16.6954    -124.0931       5.9799       2.0493       3.9307     684.9363      74.9569     -33.5316
    151   45    1      47.2380      15.6294    -123.7282       5.9199       2.0811       3.8388     594.6961      65.8814     -32.7953
    152   45    1      40.5153      13.3750    -124.7520       5.5100       2.2781       3.2320     509.6578      57.5447     -37.8484
    153   45    1      52.2623      17.3591    -131.6260       6.2624       2.4408       3.8216     705.3817      77.5638     -35.1661
    154   45    1      30.8107      10.1609    -125.3565       4.5230       1.9942       2.5288     381.2231      43.6499     -45.4089
    155   45    1      24.1313       7.9135    -123.6656       4.1397       1.9816       2.1581     149.9086      20.5367     -42.1518
    156   45    1      11.7464       3.8541    -122.6629       2.3904       1.8634       0.5271      22.3055       6.6811     -52.2124
    157   45    1      30.0955       9.8967    -120.8850       4.9284       1.6535       3.2749     238.6144      28.5900     -37.0804
    158   45    1      44.6533      14.6993    -125.1879       6.1835       1.8683       4.3152     464.2524      52.0992     -31.0798
    159   45    1      14.8567       4.8785    -123.5764       2.7729       1.8622       0.9108      77.4960      11.8257     -51.3032
    160   45    1      67.8066      22.5968    -131.1031       7.3067       2.0589       5.2479     926.5921      99.5818     -26.7158
    161   45    1      69.2163      23.1081    -130.3863       7.4357       1.8802       5.5555     956.2572     103.1478     -25.4996
    162   45    1      53.0058      17.5989    -127.2974       6.8638       1.8797       4.9841     695.1384      77.4049     -31.7923
    163   45    1      36.0719      11.8890    -124.3040       5.3822       1.7633       3.6189     478.9956      54.5013     -42.2439
    164   45    1      63.9731      21.3338    -131.0548       7.2078       2.0652       5.1426     835.8390      90.4726     -27.0241
    165   45    1      67.3017      22.4162    -132.1099       7.3648       2.1295       5.2354     853.0233      91.8765     -24.5118
    166   45    1      49.6623      16.5938    -130.2885       5.8082       2.2683       3.5399     672.4259      73.6751     -38.4812
    167   45    1      13.6257       4.4779    -121.7638       2.6638       1.6535       1.0104      78.5725      11.5633     -52.0971
    168   45    1      11.8329       3.8889    -118.8277       2.5252       1.4395       1.0857      27.5752       7.1770     -50.2013
    169   45    1      16.1747       5.3153    -119.6533       3.2586       1.4998       1.7588      52.1591      10.9125     -41.3358
    170   45    1      17.5828       5.7768    -119.8250       3.4209       1.5123       1.9086      69.7708      12.3451     -40.1348
    171   45    1      32.2133      10.6195    -122.2675       5.0347       1.6728       3.3619     266.6616      31.9318     -31.6081
    172   45    1      41.5636      13.5498    -124.3798       6.1179       1.7796       4.3383     387.1416      44.8988     -26.3202
    173   45    1      48.1801      16.1091    -125.2050       6.2259       1.7924       4.4335     434.9643      47.1478     -20.7564
    174   45    1      32.2430      10.6264    -125.1309       4.7461       1.8767       2.8694     354.5042      40.3460     -37.2623
    175   45    1      41.3515      13.8543    -125.4772       5.3951       1.8793       3.5157     389.6053      42.7953     -27.2521
    176   45    1      64.8324      21.6019    -131.7801       7.0754       2.0724       5.0030     765.4519      81.6943     -17.9031
    177   45    1      62.3769      20.6710    -130.9976       7.3237       2.0091       5.3146     765.4161      83.3346     -20.6372
    178   45    1      58.7952      19.5547    -131.7121       7.0567       2.0482       5.0085     720.0900      78.7633     -23.6358
    179   45    1      64.9262      21.5928    -131.3617       7.4778       2.0500       5.4278     619.4736      64.6897     -11.1172
    180   45    1      46.9111      15.5089    -129.7037       6.5195       1.9984       4.5211     555.0140      62.4676     -29.6878
    181   45    1      40.9763      13.6338    -130.9047       5.6254       2.0239       3.6015     493.5729      54.9911     -29.3170
    182   45    1      50.5368      16.9461    -131.3443       6.2582       2.0031       4.2551     569.5256      62.2379     -26.9047
    183   45    1      36.0193      11.9288    -131.3607       5.0781       2.1663       2.9118     435.7860      49.5147     -39.8682
    184   45    1      42.9082      14.1138    -134.5795       5.5588       2.3046       3.2542     535.2173      59.5059     -37.3871
    185   45    1      64.0433      21.4229    -139.7537       6.4975       2.4450       4.0524     984.5056     105.8559     -34.8186
    186   45    1      60.7092      20.3291    -139.7751       6.0529       2.6187       3.4343     822.7094      88.0309     -32.2082
    187   45    1      50.7973      17.0607    -132.9392       6.4663       1.9975       4.4689     615.3383      67.4578     -29.5402
    188   45    1      59.6182      19.9132    -137.5317       7.0430       2.2307       4.8123     738.5033      80.3793     -25.9723
    189   45    1      37.5879      12.5488    -132.1962       5.2363       1.9960       3.2403     434.1340      48.8796     -37.8526
    190   45    1      51.4840      17.3057    -133.5770       6.5038       2.0206       4.4832     553.9480      60.2152     -26.1231
    191   45    1      33.8663      11.3344    -129.7128       4.9807       1.9986       2.9822     335.0615      38.4388     -36.0655
    192   45    1      14.8063       4.8628    -124.6191       2.8733       1.6327       1.2406      77.4273      11.1525     -41.1445
    193   45    1      45.6061      15.2628    -129.0651       6.3039       1.8574       4.4465     458.7198      50.7069     -26.6464
    194   45    1      18.3535       6.0790    -128.7452       3.4478       1.9815       1.4663      97.3819      14.7742     -39.5882
    195   45    1      11.7387       3.8891    -126.0109       2.4531       1.7358       0.7173      27.4710       6.6443     -43.3181
    196   45    1      25.0238       8.2949    -127.0904       4.3476       1.8046       2.5430     174.4699      22.3487     -33.8793
    197   45    1      35.2553      11.7839    -130.4741       5.2596       2.0084       3.2512     332.6490      38.4340     -34.9930
    198   45    1      43.4340      14.4664    -132.8171       5.8612       2.0766       3.7846     444.7468      49.3786     -30.9873
    199   45    1      47.9021      15.8248    -131.5491       6.2600       1.8937       4.3663     458.0472      50.1884     -25.5064
    200   45    1      50.4890      16.7617    -131.6430       6.6779       1.8966       4.7812     492.1850      54.0423     -23.7771
    201   45    1      53.9731      17.9654    -133.9437       6.7396       1.9707       4.7690     510.6915      54.6028     -21.2069
    202   45    1      42.5139      14.2263    -134.9392       5.9313       2.2584       3.6729     376.6977      42.4735     -29.7409
    203   45    1      17.2912       5.7416    -131.6669       3.0444       2.0302       1.0143     127.6842      16.1216     -43.4252
    204   45    1      37.1178      12.3170    -128.5863       5.7436       2.0711       3.6725     345.8887      40.0142     -32.2805
    205   45    1      26.8712       8.9227    -125.4650       4.6573       1.8226       2.8347     215.2009      26.9551     -32.4603
    206   45    1      23.7210       7.9252    -123.9122       4.2223       1.6562       2.5661     194.3538      23.4370     -39.9187
    207   45    1      50.0392      16.6662    -127.0631       6.5669       1.8419       4.7250     507.7932      54.9315     -18.0651
    208   45    1      55.8134      18.6471    -127.5195       7.1200       1.8609       5.2591     534.1934      56.9833     -16.8106
    209   45    1      19.0847       6.3694    -122.9586       3.6894       1.8331       1.8564     111.6295      15.9384     -36.5249
    210   45    1      34.4236      11.5560    -128.4291       5.2115       2.2129       2.9987     353.2391      39.8666     -30.9664
    211   45    1      33.3747      11.1200    -125.2816       5.5233       1.8707       3.6526     312.4413      36.7371     -33.9543
    212   45    1      36.1866      12.1573    -122.6629       5.5736       1.8103       3.7633     409.8642      45.7562     -28.1663
    213   45    1      37.9018      12.7484    -120.4734       5.7717       1.5710       4.2007     403.1668      44.9316     -24.8267
    214   45    1      37.8632      12.6608    -132.4572       5.9141       1.6388       4.2753     409.5968      46.3619     -31.0348
    215   45    1      45.2879      14.9447    -135.6814       6.2787       1.7639       4.5147     516.5452      56.9236     -22.8907
    216   45    1      52.9763      17.7063    -122.8822       6.7584       1.6075       5.1509     575.6501      61.9909     -11.4059
    217   45    1      52.7083      17.5477    -123.4516       6.8088       1.6730       5.1359     571.8023      61.7972     -11.4431
    218   45    1      50.2763      16.7332    -121.5614       6.7281       1.5236       5.2045     553.8443      60.3387     -13.1927
    219   45    1      50.4635      16.7229    -133.8562       6.5894       1.5444       5.0450     539.3386      58.9353     -17.5508
    220   45    1      51.6975      17.1227    -131.8045       6.7295       1.3696       5.3599     554.2767      60.5634     -16.2924
    221   45    1      42.7433      14.2006    -130.4010       6.2364       1.4290       4.8074     419.6936      47.1919     -20.1970
    222   45    1      41.6733      13.6738    -129.9679       6.1721       1.4097       4.7624     443.5332      50.0169     -22.6844
    223   45    1      47.2762      15.5947    -136.3601       6.3109       1.8148       4.4962     596.5802      65.9268     -26.1037
    224   45    1      23.6848       7.8636    -132.0401       4.1506       1.6486       2.5020     211.3167      25.4898     -34.5416
    225   45    1      18.0347       5.9996    -128.6028       3.4543       1.4998       1.9545     118.5304      15.8993     -36.1388
    226   45    1      16.7569       5.6054    -129.0616       3.2686       1.5089       1.7597     153.8511      18.7642     -39.5541
    227   45    1      29.7537       9.8905    -131.8349       4.9475       1.6230       3.3245     279.8461      32.6190     -29.6086
    228   45    1      41.7325      13.9682    -134.7443       5.8540       1.7714       4.0826     402.9332      44.5588     -22.0354
    229   45    1      27.9496       9.2322    -134.7629       4.5357       1.7952       2.7406     321.7809      36.9965     -35.6947
    230   45    1      47.3191      15.7055    -129.7382       6.4250       1.2892       5.1358     480.4474      52.6227     -17.4649
    231   45    1      29.8334       9.9269    -128.0051       5.0279       1.3788       3.6491     304.1013      35.1641     -29.8005
    232   45    1      24.9837       8.3730    -125.8091       4.2526       1.2262       3.0264     247.7867      28.3185     -31.4878
    233   45    1      44.5128      14.7861    -132.3138       6.0661       1.4723       4.5938     419.1122      45.9120     -19.3090
    234   45    1      46.2919      15.3345    -126.6138       6.3134       1.1398       5.1736     455.9124      49.7616     -16.7859
    235   45    1      42.9235      14.2660    -125.9885       5.8062       1.2581       4.5480     428.0981      46.6271     -19.2548
    236   45    1      45.5752      15.1012    -127.2777       6.2667       1.2722       4.9945     470.9867      51.5659     -18.2826
    237   45    1      40.4356      13.4985    -126.8150       5.9417       1.3057       4.6360     450.2715      50.0800     -23.5636
    238   45    1      36.9443      12.2846    -127.0166       5.6089       1.3535       4.2553     379.3999      42.5644     -24.5384
    239   45    1      27.5363       9.2738    -125.3792       4.6956       1.3620       3.3336     208.4960      24.5302     -26.8425
    240   45    1      38.7509      12.8526    -132.0555       5.7026       1.6163       4.0863     407.3556      45.4241     -25.1191
    241   45    1      31.4795      10.5901    -127.9745       5.0539       1.4494       3.6045     329.4622      37.7300     -29.2541
    242   45    1      36.5618      11.9860    -130.5194       5.2343       1.4679       3.7664     367.9016      41.3293     -25.6863
    243   45    1      42.0094      13.5824    -128.6064       5.7652       1.3003       4.4649     369.8508      41.0772     -18.7524
    244   45    1      41.2534      13.3223    -127.6012       5.6839       1.2036       4.4803     352.0254      39.1891     -18.7993
    245   45    1      42.8894      13.8104    -128.6045       5.8186       1.2385       4.5801     434.1792      48.3145     -21.6114
    246   45    1      39.4813      12.7640    -131.1774       5.4981       1.2624       4.2357     414.5333      46.6953     -25.7669
    247   45    1      30.3466       9.8385    -130.5142       4.8080       1.2940       3.5139     313.6374      36.7049     -31.6832
    248   45    1      34.0295      10.9137    -132.9520       4.9054       1.3901       3.5153     376.9190      42.9162     -31.4938
    249   45    1      27.1336       8.7589    -134.1496       4.4798       1.4733       3.0065     301.1282      35.6535     -36.3006
    250   45    1      40.1056      12.8311    -135.0164       5.6061       1.3742       4.2319     429.5190      48.5816     -27.3136
    251   45    1      43.5720      13.8624    -137.9309       5.6963       1.4144       4.2819     475.3065      53.0881     -26.2945
    252   45    1      40.9562      13.0147    -141.0583       5.6719       1.5928       4.0790     456.8780      51.7267     -28.9234
    253   45    1      43.3635      13.7244    -140.4599       5.5868       1.6983       3.8885     616.0407      68.6234     -34.7995
    254   45    1      35.7796      11.3074    -137.5803       4.9055       1.5625       3.3430     371.7249      42.2072     -30.3076
    255   45    1      45.1113      14.1488    -140.1584       5.8325       1.3916       4.4410     412.3484      46.1866     -22.4251
