chamber,temp_treatment,leaf,Obs,HHMMSS,FTime,EBal.,Photo,Cond,Ci,Trmmol,VpdL,CTleaf,Area,BLC_1,StmRat,BLCond,Tair,Tleaf,TBlk,Curve,CO2R,CO2S,H2OR,H2OS,RH_R,RH_S,Flow,PARi,PARo,Press,CsMch,HsMch,StableF,BLCslope,BLCoffst,f_parin,f_parout,alphaK,Status,fda,Trans,Tair_K,Twall_K,R.W.m2.,Tl.Ta,SVTleaf,h2o_i,h20diff,CTair,SVTair,CndTotal,vp_kPa,VpdA,CndCO2,Ci_Pa,Ci.Ca,RHsfc,C2sfc,AHs.Cs,temp
ch02,elevated,sun,1,8:40:48,1311.5,0,15.83032501,0.129253518,189.0491974,1.884628808,1.512041075,25.09452438,6,1.420000017,1,2.840000033,23.67093658,25.09452438,23.31174088,1,419.6640015,399.7818604,14.36401749,16.58600807,49.71536636,57.40590668,500.4621582,1799.062256,125.514183,101.6278076,2.047336102,-0.306112736,1,-0.219565243,2.737391472,1,0,0.159999996,111115,0.834103597,0.001884629,298.2445244,296.8209366,287.8499545,2.233834385,3.197640713,31.46422999,14.87822192,24.38273048,3.064526741,0.123627029,1.685599637,1.378927103,0.077753438,19.21265546,0.472880879,53.65889933,392.256882,0.021655141,elevated
ch02,elevated,sun,2,8:43:17,1460,0,-0.543153476,0.141553732,55.94785716,2.013359522,1.480878737,25.09837914,6,1.420000017,1,2.840000033,23.65099907,25.09837914,23.31413078,1,50.28460693,50.8131485,14.52621746,16.89928055,50.33890533,58.56248474,500.4507141,1799.963623,108.8251419,101.6313324,1.64336729,-0.309654683,1,-0.219565243,2.737391472,1,0,0.159999996,111115,0.834084524,0.00201336,298.2483791,296.8009991,287.9941733,2.165100694,3.198375136,31.4703651,14.57108455,24.3746891,3.063051013,0.134833256,1.717496399,1.345554615,0.084849864,5.686055268,1.101050787,54.80418438,51.07133765,-0.00582853,elevated
ch02,elevated,sun,3,8:45:46,1609,0,2.137112839,0.154068803,71.57554874,2.126323656,1.442788045,25.04656219,6,1.420000017,1,2.840000033,23.63455582,25.04656219,23.31537819,1,99.55394745,96.74507141,14.67194462,17.17746162,50.89308548,59.58406067,500.4473267,1799.930664,112.0223999,101.6289291,1.793559551,-0.319336385,1,-0.219565243,2.737391472,1,0,0.159999996,111115,0.834078878,0.002126324,298.1965622,296.7845558,287.9888998,2.110997186,3.188515075,31.37408907,14.19662745,24.34055901,3.056794483,0.14614073,1.74572703,1.311067453,0.092018626,7.274146371,0.739836642,56.01105593,95.72919032,0.012504226,elevated
ch02,elevated,sun,4,8:48:15,1758.5,0,4.911949876,0.169527023,93.33087137,2.274777628,1.409793654,25.02236557,6,1.420000017,1,2.840000033,23.63403893,25.02236557,23.31360435,1,151.0301666,144.7457733,14.77763653,17.45755577,51.25938034,60.55525208,500.4028931,1799.626221,132.6511841,101.6251221,1.872386456,-0.328735799,1,-0.219565243,2.737391472,1,0,0.159999996,111115,0.834004822,0.002274778,298.1723656,296.7840389,287.9401889,2.036137249,3.183919891,31.33004739,13.87249162,24.32820225,3.05453207,0.159977545,1.774126236,1.280405834,0.100802207,9.484761196,0.644791687,57.1708987,142.4108676,0.019719042,elevated
ch02,elevated,sun,5,8:50:44,1907,0,9.5772529,0.184416775,126.1166213,2.408536016,1.378810006,25.00159073,6,1.420000017,1,2.840000033,23.63519096,25.00159073,23.31431961,1,229.7310486,217.6200104,14.88700008,17.723526,51.63553619,61.4740181,500.43927,1799.440918,161.4116974,101.6258926,1.892711163,-0.340246648,1,-0.219565243,2.737391472,1,0,0.159999996,111115,0.83406545,0.002408536,298.1515907,296.785191,287.9105404,1.968925801,3.179979156,31.29103296,13.56750696,24.31839085,3.052736733,0.173171782,1.801169151,1.251567582,0.109189441,12.81671422,0.579526768,58.26188587,213.067443,0.026188366,elevated
ch02,elevated,sun,6,8:53:13,2056.5,0,15.58453786,0.198572522,172.5471146,2.531373138,1.351935577,24.99613571,6,1.420000017,1,2.840000033,23.64962387,24.99613571,23.31290817,1,330.4928894,310.8626709,14.99737167,17.97805214,51.97241974,62.30177307,500.3952637,1799.177612,188.467804,101.6244431,1.859233379,-0.345291585,1,-0.219565243,2.737391472,1,0,0.159999996,111115,0.833992106,0.002531373,298.1461357,296.7996239,287.8684115,1.90692829,3.178945113,31.28130415,13.30325201,24.32287979,3.053558027,0.18559569,1.827009536,1.226548491,0.117097336,17.53500442,0.555058972,59.24769625,303.454528,0.030427886,elevated
ch02,elevated,sun,7,8:55:42,2205,0,20.59599816,0.211452269,222.1408135,2.644558343,1.331767051,25.02530098,6,1.420000017,1,2.840000033,23.67926788,25.02530098,23.31671143,1,420.4293213,394.4831848,15.11784935,18.23095131,52.29647827,63.06548691,500.4035645,1798.812378,207.4546051,101.6244278,1.845286846,-0.351517171,1,-0.219565243,2.737391472,1,0,0.159999996,111115,0.834005941,0.002644558,298.175301,296.8292679,287.809974,1.847038646,3.184477046,31.33574393,13.10479262,24.35228443,3.058942659,0.196799553,1.852709995,1.206232664,0.124237279,22.57493306,0.563118587,60.08824785,384.6928337,0.032170535,elevated
ch02,elevated,sun,8,8:58:11,2354.5,0,29.11748226,0.221757901,378.618411,2.735659894,1.317618217,25.07881165,6,1.420000017,1,2.840000033,23.70900917,25.07881165,23.31443787,1,650.1154175,613.1919556,15.25366306,18.47315216,52.66365814,63.77902603,500.4129944,1800.017822,211.8665619,101.6085587,1.458812237,-0.359619588,1,-0.219565243,2.737391472,1,0,0.159999996,111115,0.834021657,0.00273566,298.2288116,296.8590092,288.0028451,1.798325074,3.194648581,31.44074302,12.96759086,24.39391041,3.066579476,0.205696355,1.877030365,1.189549111,0.129912818,38.47087103,0.617454955,60.76350546,599.350899,0.029519941,elevated
ch02,elevated,sun,9,9:00:50,2513,0,30.73854745,0.22670673,711.0997333,2.772847687,1.308417005,25.13352203,6,1.420000017,1,2.840000033,23.73436737,25.13352203,23.31329155,1,1000.391296,960.3400269,15.4017334,18.66456604,53.09882736,64.34773254,500.3800049,1799.331543,214.4450226,101.618248,0.141002178,-0.355751485,0.666666687,-0.219565243,2.737391472,1,0,0.159999996,111115,0.833966675,0.002772848,298.283522,296.8843674,287.8930404,1.773442339,3.205077506,31.5403736,12.87580756,24.4339447,3.073939996,0.209947403,1.8966605,1.177279496,0.132626514,72.26070904,0.74046662,61.22116411,945.7283936,0.019898416,elevated
ch02,elevated,sun,10,9:03:19,2662.5,0,30.24306039,0.217029039,900.8739804,2.657803028,1.305981178,25.11841202,6,1.420000017,1,2.840000033,23.60590744,25.11841202,23.11637497,1,1199.891357,1159.934448,15.53245449,18.65962791,53.96691132,64.83215332,500.4281616,1799.34668,222.4507294,101.6211624,-0.843739033,-0.355455846,0.666666687,-0.219565243,2.737391472,1,0,0.159999996,111115,0.834046936,0.002657803,298.268412,296.7559074,287.8954623,1.818503487,3.202194257,31.51109652,12.8514686,24.36215973,3.060752902,0.201621399,1.896213079,1.164539824,0.127312639,91.54786107,0.776659389,61.13654307,1145.558346,0.016140218,elevated
ch02,elevated,sun,11,9:05:57,2820,0,29.70151256,0.20621459,1479.450852,2.547053836,1.312486815,25.14668465,6,1.420000017,1,2.840000033,23.60478783,25.14668465,23.11564636,1,1799.192749,1758.210938,15.65203667,18.64902115,54.38516998,64.79860687,500.4137573,1799.229858,232.1590881,101.6194992,-4.05345583,-0.347723454,0.666666687,-0.219565243,2.737391472,1,0,0.159999996,111115,0.834022929,0.002547054,298.2966846,296.7547878,287.8767709,1.872083037,3.207591005,31.56471967,12.91569852,24.37573624,3.063243145,0.192254819,1.89510419,1.168138955,0.121340047,150.3410546,0.841452422,60.86937368,1744.092261,0.010365922,elevated
ch04,elevated,sun,1,8:50:48,687,0,15.17641172,0.11639931,177.0901982,1.858820876,1.649976426,25.07345963,6,1.420000017,1,2.840000033,23.49541092,25.07345963,22.87475395,2,419.7677917,400.6630249,12.99350071,15.19012928,45.44752884,53.13070679,500.0167542,1800.153931,238.6446381,101.6221466,-1.331419706,0.469985455,1,-0.219565243,2.737391472,1,0,0.159999996,111115,0.833361257,0.001858821,298.2234596,296.6454109,288.0246225,2.228891908,3.193629971,31.42651555,16.23638627,24.28443527,3.046530496,0.111816438,1.543653545,1.502876951,0.070283056,17.99628608,0.441992865,49.18511993,393.4488856,0.018972061,elevated
ch04,elevated,sun,2,8:53:17,836.5,0,-0.227702511,0.12977583,51.04323946,2.011481183,1.608485771,25.02981949,6,1.420000017,1,2.840000033,23.43086433,25.02981949,22.88312721,2,49.26657867,49.42052841,13.14056778,15.51684284,46.1410408,54.48495102,500.0101318,1799.030518,275.5940552,101.6217728,2.850632906,0.473739117,1,-0.219565243,2.737391472,1,0,0.159999996,111115,0.83335022,0.002011481,298.1798195,296.5808643,287.8448764,2.14444864,3.185334848,31.34500375,15.82816091,24.23034191,3.036666352,0.124104773,1.576849077,1.459817275,0.078055807,5.187104482,1.032834757,50.5514189,49.52876728,-0.00232404,elevated
ch04,elevated,sun,3,8:55:46,985,0,2.249546371,0.145472986,70.32710131,2.191184263,1.571130073,25.01726723,6,1.420000017,1,2.840000033,23.44163322,25.01726723,22.8837719,2,101.2328796,98.27490234,13.27309227,15.86090946,46.5763588,55.65721893,499.9804688,1799.927979,299.7725525,101.6223145,2.694253206,0.462164372,1,-0.219565243,2.737391472,1,0,0.159999996,111115,0.833300781,0.002191184,298.1672672,296.5916332,287.9884701,2.055434544,3.182952402,31.32139254,15.46048308,24.22945023,3.036503984,0.138384531,1.611822329,1.424681655,0.087100427,7.146802804,0.715616089,51.90992159,97.20557574,0.012013074,elevated
ch04,elevated,sun,4,8:58:15,1134.5,0,4.978510192,0.163526789,90.06842447,2.400374392,1.53996554,25.06361389,6,1.420000017,1,2.840000033,23.46735573,25.06361389,22.88485336,2,150.4558258,144.0664215,13.42072296,16.25444794,47.02072906,56.94894791,499.9830933,1798.781372,309.8088989,101.6208801,2.331475496,0.453897923,1,-0.219565243,2.737391472,1,0,0.159999996,111115,0.833305155,0.002400374,298.2136139,296.6173557,287.8050131,1.941001587,3.191756845,31.40847473,15.15402679,24.26548481,3.043071619,0.154623586,1.651791305,1.391280314,0.097402054,9.152832566,0.625186796,53.26489443,141.6998762,0.018714189,elevated
ch04,elevated,sun,5,9:00:44,1283,0,9.330652944,0.180653669,126.5727838,2.592454945,1.513659147,25.13230324,6,1.420000017,1,2.840000033,23.50157547,25.13230324,22.88253593,2,229.7579803,217.8827209,13.58320904,16.64254951,47.49064636,58.18695068,499.9724426,1799.962891,316.4173889,101.618187,1.514382601,0.446606129,1,-0.219565243,2.737391472,1,0,0.159999996,111115,0.833287404,0.002592455,298.2823032,296.6515755,287.9940561,1.837981058,3.204844855,31.53810308,14.89555356,24.31693935,3.05247121,0.169849469,1.691185708,1.361285502,0.107076469,12.8620968,0.580921623,54.49817014,213.4473754,0.023823367,elevated
ch04,elevated,sun,6,9:03:13,1432.5,0,14.75130488,0.190830966,174.9382182,2.690577359,1.491885102,25.16914749,6,1.420000017,1,2.840000033,23.52813148,25.16914749,22.88199615,2,330.2446594,311.5376282,13.75239468,16.92637062,48.00447464,59.08364105,500.0105286,1799.478394,332.4960938,101.6165466,0.187447786,0.439320058,1,-0.219565243,2.737391472,1,0,0.159999996,111115,0.833350881,0.002690577,298.3191475,296.6781315,287.9165365,1.784265021,3.211884432,31.60788807,14.68151745,24.34863949,3.05827474,0.178815629,1.719999329,1.33827541,0.112780541,17.7766176,0.561531585,55.3931911,304.5255643,0.026832619,elevated
ch04,elevated,sun,7,9:05:42,1581,0,18.79635816,0.189933888,221.5273247,2.630964425,1.465335574,25.07974815,6,1.420000017,1,2.840000033,23.24590874,25.07974815,22.48869324,2,419.9789124,396.171875,13.91635799,17.01986313,49.41100693,60.43021774,499.9867554,1799.5354,337.0227661,101.6160507,-1.267416716,0.45009467,1,-0.219565243,2.737391472,1,0,0.159999996,111115,0.833311259,0.002630964,298.2297482,296.3959087,287.9256576,1.790276595,3.194826849,31.44017925,14.42031612,24.16282845,3.024394178,0.178027727,1.729491275,1.294902903,0.112279086,22.51073186,0.559169741,55.94172358,387.2369865,0.027153932,elevated
ch04,elevated,sun,8,9:08:15,1734,0,25.82930617,0.183010647,367.4826005,2.526999159,1.45732476,25.04728317,6,1.420000017,1,2.840000033,23.22907257,25.04728317,22.48944092,2,650.1034546,617.2371216,14.05774689,17.03842926,49.96235275,60.55593872,500.0082703,1799.66626,336.006897,101.6130829,-6.12142086,0.450085133,1,-0.219565243,2.737391472,1,0,0.159999996,111115,0.833347117,0.002526999,298.1972832,296.3790726,287.9465951,1.847075112,3.188652085,31.38033011,14.34190085,24.13817787,3.01992417,0.171931329,1.731327325,1.288596845,0.108400437,37.34103995,0.595366979,55.99812,604.9591065,0.023908932,elevated
ch04,elevated,sun,9,9:11:18,1917.5,0,28.34249215,0.158086539,644.622332,2.244077472,1.485920917,25.09300041,6,1.420000017,1,2.840000033,23.22721481,25.09300041,22.48917007,2,1000.902588,964.2920532,14.19501591,16.84275627,50.45544434,59.86669922,499.9616394,1799.440918,320.644043,101.6121979,-15.46956539,0.456287831,0.666666687,-0.219565243,2.737391472,1,0,0.159999996,111115,0.833269399,0.002244077,298.2430004,296.3772148,287.9105404,1.987892394,3.1973504,31.46620649,14.62345022,24.16010761,3.023900512,0.149750771,1.711429483,1.312471029,0.094309077,65.50149195,0.668492839,54.88732638,950.8193899,0.016361084,elevated
ch04,elevated,sun,10,9:14:07,2086,0,28.32876227,0.1346914,788.6499026,1.969795815,1.518838449,25.14134026,6,1.420000017,1,2.840000033,23.11518097,25.14134026,22.26850319,2,1199.332031,1162.588867,14.28695297,16.61147881,51.12133026,59.43890762,499.9921875,1799.111328,298.5595398,101.6003342,-21.79878998,0.467943639,0.666666687,-0.219565243,2.737391472,1,0,0.159999996,111115,0.833320313,0.001969796,298.2913403,296.265181,287.8578061,2.108983886,3.206570246,31.56062697,14.94914816,24.12826061,3.018127455,0.128592692,1.687731798,1.330395657,0.080896981,80.12709364,0.678356661,53.66216681,1149.12273,0.013229072,elevated
ch04,elevated,sun,11,9:17:07,2266.5,0,27.75288966,0.117514817,1333.018727,1.744095567,1.533051555,25.09602547,6,1.420000017,1,2.840000033,23.07375717,25.09602547,22.29170418,2,1799.316284,1762.324341,14.32438755,16.38301849,51.39480972,58.78102493,499.9989014,1799.516602,316.9230957,101.6220016,-42.92610931,0.473392934,0.666666687,-0.219565243,2.737391472,1,0,0.159999996,111115,0.833331502,0.001744096,298.2460255,296.2237572,287.9226498,2.228425853,3.197926688,31.46884175,15.08582325,24.08489132,3.010281194,0.112845446,1.664875132,1.345406062,0.070933563,135.4640313,0.756398068,52.83749195,1749.131946,0.008383548,elevated
ch04,elevated,sun,12,9:18:52,2371,0,32.82688454,0.003693274,-13670.75409,0.064469243,1.735850669,25.10991669,6,1.420000017,1,2.840000033,24.50637436,25.10991669,24.22571564,3,419.9681702,380.5445557,14.33381939,14.41007137,47.19252396,47.443573,499.9757385,1800.804688,18.83740234,101.6458206,-42.92610931,0.473392934,1,-0.219565243,2.737391472,1,0,0.159999996,111115,0.833292898,6.45E-05,298.2599167,297.6563744,288.1287436,3.297806179,3.200574199,31.48751399,17.07744262,24.80814552,3.143489091,0.003688477,1.46472353,1.678765561,0.002305728,-1389.575018,-35.92418782,44.56261646,364.9402269,0.040084698,elevated
ch05,ambient,sun,23,10:16:12,7226,0,12.48867261,0.091195919,172.0612262,1.312451961,1.467332147,25.42355728,6,1.420000017,1,2.840000033,22.8415184,25.42355728,21.33600044,3,419.6217651,404.0098267,16.15689468,17.7028904,58.6117363,64.22008514,500.344635,1799.44873,1197.199829,101.3128586,2.145477295,-0.261707515,1,-0.219565243,2.737391472,1,0,0.159999996,111115,0.833907725,0.001312452,298.5735573,295.9915184,287.9117904,2.377516555,3.260862578,32.18606822,14.48317783,24.13253784,3.018902248,0.088358615,1.793530431,1.225371817,0.055472227,17.43201467,0.425883765,55.28635414,398.0733098,0.017344875,ambient
ch05,ambient,sun,24,10:18:41,7374.5,0,-0.469763423,0.099807542,58.39906807,1.310389378,1.342649932,25.03093147,6,1.420000017,1,2.840000033,22.01013756,25.03093147,20.16748238,3,51.35255432,51.83440781,16.64847374,18.19120026,63.52215195,69.40841675,500.3680725,1799.791748,963.5571899,101.3070068,1.781112671,-0.26186201,1,-0.219565243,2.737391472,1,0,0.159999996,111115,0.833946788,0.001310389,298.1809315,295.1601376,287.9666733,2.324163755,3.18554598,31.44447832,13.25327807,23.52053452,2.909793259,0.09641904,1.842896049,1.06689721,0.060557442,5.916234789,1.126646769,58.24652671,52.05771084,-0.005256107,ambient
ch05,ambient,sun,25,10:21:10,7524,0,1.957625332,0.117506892,67.93457078,1.427704283,1.249915243,24.80284119,6,1.420000017,1,2.840000033,21.88689232,24.80284119,20.18156815,3,99.71041107,97.19631195,17.00194931,18.68213654,65.35863495,71.81758118,500.3127136,1801.407471,869.7024536,101.3041763,1.366386414,-0.280214518,1,-0.219565243,2.737391472,1,0,0.159999996,111115,0.833854523,0.001427704,297.9528412,295.0368923,288.2251889,2.281311307,3.142493697,31.02037656,12.33824003,23.34486675,2.879119012,0.112838139,1.892578454,0.986540558,0.070928943,6.882055738,0.698941857,60.83231903,96.26575062,0.012370639,ambient
ch05,ambient,sun,26,10:23:39,7672.5,0,4.484827652,0.133770818,87.18779645,1.582556183,1.223457914,24.91363525,6,1.420000017,1,2.840000033,22.45157242,24.91363525,21.16243744,3,150.9363403,145.282074,17.28521729,19.14679527,64.20877075,71.123909,500.3030701,1800.855469,896.729248,101.3163986,1.554252625,-0.295862406,1,-0.219565243,2.737391472,1,0,0.159999996,111115,0.83383845,0.001582556,298.0636353,295.6015724,288.1368686,2.258293772,3.163342256,31.22241117,12.0756159,23.68260384,2.938346107,0.127753329,1.939884342,0.998461765,0.080365505,8.83355354,0.600127697,62.10941445,143.1502017,0.019458584,ambient
ch05,ambient,sun,27,10:26:08,7822,0,8.560414641,0.150553944,120.6842272,1.752356116,1.20988288,25.12685966,6,1.420000017,1,2.840000033,22.60163116,25.12685966,21.15911674,3,229.8222656,219.0963287,17.62075806,19.68080139,64.85916138,72.44184113,500.3394775,1799.367065,976.9313354,101.3131027,1.6404953,-0.317058772,1,-0.219565243,2.737391472,1,0,0.159999996,111115,0.833899129,0.001752356,298.2768597,295.7516312,287.898724,2.157067573,3.203805933,31.62281923,11.94201783,23.86424541,2.970638045,0.142974582,1.993923053,0.976714992,0.090010504,12.2268935,0.550827245,63.1930656,215.0271176,0.025157703,ambient
ch05,ambient,sun,28,10:28:41,7974.5,0,12.9024331,0.151186537,165.9623704,1.703231891,1.17111392,25.10727882,6,1.420000017,1,2.840000033,22.32521439,25.10727882,20.53993225,3,329.3598328,313.2480774,18.02496719,20.02649689,67.47130585,74.9634552,500.3539429,1798.664185,1285.744263,101.3136444,1.808372498,-0.313854426,1,-0.219565243,2.737391472,1,0,0.159999996,111115,0.833923238,0.001703232,298.2572788,295.4752144,287.7862631,2.147657934,3.200071304,31.5857881,11.55929121,23.7162466,2.944303794,0.143544964,2.028957384,0.91534641,0.09037222,16.81425258,0.529811298,64.33280604,307.1148786,0.027027337,ambient
ch05,ambient,sun,29,10:31:10,8124,0,16.4314375,0.140770216,199.0582629,1.568061787,1.153871323,25.08725739,6,1.420000017,1,2.840000033,22.27043533,25.08725739,20.5684185,3,419.7582397,399.3035889,18.31647301,20.15891457,68.79180145,75.71152496,500.3528137,1798.682983,1456.100342,101.3142471,1.614189148,-0.307985514,0.666666687,-0.219565243,2.737391472,1,0,0.159999996,111115,0.833921356,0.001568062,298.2372574,295.4204353,287.7892709,2.213864285,3.196256575,31.54794775,11.38903319,23.67884636,2.937681362,0.134122184,2.042385252,0.89529611,0.084399332,20.16743804,0.498513583,64.69133621,391.4928704,0.02715175,ambient
ch05,ambient,sun,30,10:33:39,8272.5,0,23.79334826,0.126374936,299.0607431,1.414755391,1.153813795,25.15626907,6,1.420000017,1,2.840000033,22.30477142,25.15626907,20.57243729,3,649.9140015,620.3275757,18.62855148,20.29075813,69.8132782,76.04264832,500.3164673,1798.929565,1502.900879,101.3076248,0.820854187,-0.298320979,1,-0.219565243,2.737391472,1,0,0.159999996,111115,0.833860779,0.001414755,298.3062691,295.4547714,287.828724,2.289374524,3.209422307,31.67996795,11.38920981,23.73052025,2.946834656,0.12099105,2.055608512,0.891226144,0.076085361,30.29713356,0.48210132,64.66251199,609.0173575,0.025262624,ambient
ch05,ambient,sun,31,10:36:08,8422,0,29.76485211,0.104363784,479.2340798,1.173041684,1.149658782,25.1410656,6,1.420000017,1,2.840000033,22.0789032,25.1410656,20.17587662,3,1000.346741,963.2963867,18.92850876,20.30670166,71.90715027,77.14274597,500.3164978,1799.938843,1389.962158,101.2896652,-0.426094055,-0.285185069,1,-0.219565243,2.737391472,1,0,0.159999996,111115,0.83386083,0.001173042,298.2910656,295.2289032,287.9902084,2.389955253,3.206517795,31.6569098,11.35020814,23.6099844,2.925522095,0.100664581,2.056859013,0.868663082,0.063237575,48.5414595,0.497493904,64.49454271,949.1476015,0.020225205,ambient
ch05,ambient,sun,32,10:38:54,8587.5,0,30.32618661,0.080949322,531.6115963,0.971416864,1.21837343,25.06067467,6,1.420000017,1,2.840000033,22.01996994,25.06067467,20.17747498,3,1200.033203,1162.310547,18.33339882,19.4756794,69.90201569,74.25733185,500.3137817,1799.927002,1560.742798,101.2968216,-1.811103821,-0.26091215,0.666666687,-0.219565243,2.737391472,1,0,0.159999996,111115,0.833856303,0.000971417,298.2106747,295.1699699,287.9883139,2.498674569,3.191197851,31.50343516,12.02775577,23.5403223,2.913266351,0.078705944,1.972824421,0.94044193,0.049387967,53.85056502,0.457374836,61.90793565,1147.89493,0.016355431,ambient
ch05,ambient,sun,33,10:41:29,8743,0,34.41347945,0.064778782,864.1926169,0.789883886,1.231299046,25.0962162,6,1.420000017,1,2.840000033,22.03087616,25.0962162,20.18181038,3,1799.790039,1756.854614,18.4834671,19.41236496,70.43641663,73.97624207,500.3028259,1800.104614,1463.938354,101.3098602,-5.768623352,-0.256267756,1,-0.219565243,2.737391472,1,0,0.159999996,111115,0.833838043,0.000789884,298.2462162,295.1808762,288.0167318,2.590340568,3.197963027,31.56615772,12.15379276,23.56354618,2.91734716,0.063334166,1.966663981,0.950683179,0.039711157,87.55123323,0.491897628,61.37141926,1740.496094,0.012134495,ambient
ch06,elevated,sun,12,9:31:03,4326.5,0,24.06595781,0.323000552,252.0793264,3.754946357,1.282047909,25.28765297,6,1.420000017,1,2.840000033,23.81220055,25.28765297,23.06608963,4,420.0571289,389.4479065,14.79986286,19.21564293,50.78308868,65.93505096,500.4043579,1800.40625,266.8930969,101.6135788,1.81852293,-0.385769337,1,-0.219565243,2.737391472,1,0,0.159999996,111115,0.834007263,0.003754946,298.437653,296.9622005,288.0649936,1.25171026,3.234618156,31.83253847,12.61689554,24.54992676,3.095351171,0.290016253,1.952570247,1.142780924,0.183960611,25.61468249,0.647273543,63.48013187,378.0081027,0.040414747,elevated
ch06,elevated,sun,13,9:33:32,4475,0,-0.060054247,0.322742331,49.18032176,3.636839505,1.242926572,25.05133247,6,1.420000017,1,2.840000033,23.12652779,25.05133247,22.12906647,4,49.97838974,49.83307648,14.87844658,19.15600586,53.20780563,68.50507355,500.3562012,1799.858887,268.9472351,101.6127853,1.350223064,-0.376755208,1,-0.219565243,2.737391472,1,0,0.159999996,111115,0.833927002,0.00363684,298.2013325,296.2765278,287.9774154,1.253458002,3.189421683,31.38799583,12.23198997,24.08893013,3.011011132,0.289808061,1.946495111,1.06451602,0.183826587,4.997349478,0.986901176,64.09915936,49.86162339,-0.000772022,elevated
ch06,elevated,sun,14,9:36:01,4624,0,3.136973942,0.246733244,71.90921188,2.995397711,1.30739038,25.01515388,6,1.420000017,1,2.840000033,23.03314209,25.01515388,22.13694572,4,99.61665344,95.51190186,14.92859077,18.454216,53.68889618,66.36838531,500.3572083,1800.480957,261.7857971,101.6115265,1.498668194,-0.345358342,1,-0.219565243,2.737391472,1,0,0.159999996,111115,0.83392868,0.002995398,298.1651539,296.1831421,288.0769467,1.582321449,3.182551438,31.32077185,12.86655585,24.02414799,2.999321651,0.227011005,1.875161058,1.124160593,0.143531113,7.306804788,0.752882211,61.23905399,94.02073468,0.020432229,elevated
ch06,elevated,sun,15,9:38:30,4773.5,0,4.508106116,0.148989557,92.03241383,2.049632728,1.435153561,25.11546707,6,1.420000017,1,2.840000033,23.01288414,25.11546707,22.13563919,4,151.1127319,145.3495483,14.97038269,17.38548851,53.90258408,62.59844589,500.3504639,1801.134644,245.8609009,101.6065216,1.808772564,-0.301613301,1,-0.219565243,2.737391472,1,0,0.159999996,111115,0.83391744,0.002049633,298.2654671,296.1628841,288.1815365,2.061121632,3.201632575,31.51010904,14.12462053,24.06417561,3.006539659,0.141563005,1.766479014,1.240060645,0.089115424,9.351093445,0.633179909,56.34134901,143.2066106,0.017736107,elevated
ch06,elevated,sun,16,9:40:59,4922,0,5.756114693,0.090579181,113.9355093,1.344387991,1.518673169,25.12303352,6,1.420000017,1,2.840000033,22.85659409,25.12303352,21.9347477,4,229.7544556,222.492569,14.99272728,16.57828903,54.4944458,60.25753021,500.3023071,1799.673462,241.550293,101.6029282,1.972972393,-0.264337987,0.666666687,-0.219565243,2.737391472,1,0,0.159999996,111115,0.833837179,0.001344388,298.2730335,296.0065941,287.9477475,2.404997455,3.203075878,31.52542881,14.94713978,23.9898138,2.993142392,0.087779534,1.68440271,1.308739683,0.055107053,11.57618137,0.512086807,52.92013247,219.7563877,0.013861456,elevated
ch06,elevated,sun,17,9:43:35,5078.5,0,6.828590242,0.060472549,132.0858087,0.932287195,1.561700727,25.09225273,6,1.420000017,1,2.840000033,22.80929756,25.09225273,21.93830872,4,330.2996521,321.7520752,14.99706173,16.09693718,54.66704178,58.6762886,500.3913269,1800.468872,252.677124,101.6036301,1.783763409,-0.241678685,1,-0.219565243,2.737391472,1,0,0.159999996,111115,0.833985545,0.000932287,298.2422527,295.9592976,288.0750131,2.61979223,3.197207977,31.46745815,15.37052097,23.95077515,2.986129977,0.059211744,1.63550725,1.350622726,0.037118587,13.42039765,0.410520456,51.00747962,318.5060904,0.010935715,elevated
ch06,elevated,sun,18,9:46:03,5226,0,7.252923303,0.045634388,146.2508002,0.720053876,1.590434158,25.10885048,6,1.420000017,1,2.840000033,22.80580139,25.10885048,21.93967438,4,420.2315979,411.1795959,14.99499893,15.84473515,54.67295074,57.7711525,500.3751526,1800.302368,267.3486938,101.607048,1.476390362,-0.231276959,1,-0.219565243,2.737391472,1,0,0.159999996,111115,0.833958588,0.000720054,298.2588505,295.9558014,288.0483725,2.727573388,3.200370923,31.49752882,15.65279367,23.95732594,2.987305674,0.04491271,1.609936765,1.377368909,0.028134402,14.86011209,0.355685938,49.90478056,407.7319036,0.008877293,elevated
ch06,elevated,sun,19,9:48:30,5373,0,10.05087893,0.037401896,191.5575674,0.597855148,1.606618869,25.12658119,6,1.420000017,1,2.840000033,22.71619225,25.12658119,21.7127018,4,649.5927734,637.0842896,15.01355934,15.71916485,55.0373497,57.62398529,500.3850098,1799.924194,282.2584229,101.604248,0.777049541,-0.222732037,1,-0.219565243,2.737391472,1,0,0.159999996,111115,0.833975016,0.000597855,298.2765812,295.8661922,287.9878647,2.776370456,3.203752793,31.53168155,15.8125167,23.92138672,2.980860489,0.036915728,1.597133924,1.383726565,0.023115522,19.4630626,0.30067853,49.30615677,632.3065831,0.007837499,elevated
ch06,elevated,sun,20,9:50:58,5521.5,0,13.96868342,0.033214173,287.5222038,0.532448449,1.608960413,25.10917473,6,1.420000017,1,2.840000033,22.69139671,25.10917473,21.74702835,4,1001.006653,983.6281738,15.03518772,15.66366863,55.19880676,57.50615692,500.3572998,1799.775757,292.5223389,101.6027832,-0.422230244,-0.214871854,1,-0.219565243,2.737391472,1,0,0.159999996,111115,0.833928833,0.000532448,298.2591747,295.8413967,287.9641147,2.809402124,3.200432741,31.49945937,15.83579073,23.90028572,2.977081994,0.032830219,1.591472328,1.385609666,0.020553041,29.21305614,0.292307817,49.10782366,976.9881307,0.007021289,elevated
ch06,elevated,sun,21,9:53:25,5668,0,15.39487301,0.030536826,347.4140248,0.491025998,1.612362753,25.10907936,6,1.420000017,1,2.840000033,22.68458557,25.10907936,21.74520493,4,1200.468872,1181.312744,15.05081081,15.63041496,55.27754211,57.40626907,500.3598328,1800.186279,317.6053467,101.6001053,-1.310657978,-0.207903355,1,-0.219565243,2.737391472,1,0,0.159999996,111115,0.833933055,0.000491026,298.2590794,295.8345856,288.0297982,2.830931496,3.200414559,31.50011066,15.8696957,23.89683247,2.976464029,0.030211975,1.588051806,1.388412223,0.018911404,35.2973015,0.29409149,48.95320078,1173.994759,0.00641935,elevated
ch06,elevated,sun,22,9:56:04,5827.5,0,21.83136618,0.028557892,510.2571648,0.459936915,1.613807848,25.10371971,6,1.420000017,1,2.840000033,22.68578529,25.10371971,21.74490929,4,1800.760498,1773.603882,15.06359482,15.6065073,55.31915283,57.31293488,500.3667297,1800.171021,345.3131104,101.5976868,-4.858509541,-0.204794377,1,-0.219565243,2.737391472,1,0,0.159999996,111115,0.83394455,0.000459937,298.2537197,295.8357853,288.0273568,2.848048062,3.199392888,31.49080446,15.88429716,23.8947525,2.97609187,0.028273585,1.58558504,1.39050683,0.017696316,51.8409476,0.287695111,48.85674544,1763.226296,0.006049192,elevated
ch07,ambient,sun,1,8:41:47,1560.5,0,14.51068767,0.133378125,213.9918977,1.74634501,1.355092186,24.86478615,6,1.420000017,1,2.840000033,24.89498711,24.86478615,25.26958656,5,420.0108337,401.770752,15.69755077,17.75430107,50.33927155,56.93490601,500.4029541,1800.472412,118.8082352,101.3299866,1.225555182,-0.393067569,1,-0.219565243,2.737391472,1,0,0.159999996,111115,0.834004924,0.001746345,298.0147861,298.0449871,288.0755795,2.505009834,3.154135275,31.127363,13.37306193,24.87988663,3.156978879,0.127395124,1.799043089,1.35793579,0.080138708,21.68379612,0.532621891,57.93672251,394.873066,0.021290429,ambient
ch07,ambient,sun,2,8:44:16,1710,0,-0.278788227,0.140816792,52.45297923,1.792370045,1.320165263,24.95636749,6,1.420000017,1,2.840000033,24.90440941,24.95636749,25.26638222,5,50.01461411,50.24092102,16.15966988,18.26955414,51.79198456,58.5541954,500.3945313,1799.813965,118.132637,101.3298035,1.145972967,-0.427516192,1,-0.219565243,2.737391472,1,0,0.159999996,111115,0.833990885,0.00179237,298.1063675,298.0544094,287.9702279,2.468294674,3.171415593,31.29795465,13.02840051,24.93038845,3.166505269,0.134164465,1.85125033,1.315254939,0.08442612,5.315050077,1.044029014,59.33158256,50.37344359,-0.003283664,ambient
ch07,ambient,sun,3,8:46:45,1858.5,0,2.101363054,0.167291289,74.46779015,2.002694214,1.252250629,24.96128845,6,1.420000017,1,2.840000033,24.90503883,24.96128845,25.2655468,5,100.0608978,97.30731201,16.59256554,18.94863319,53.17838287,60.7294693,500.3453674,1798.813232,116.2922287,101.3316269,1.342948675,-0.440571994,1,-0.219565243,2.737391472,1,0,0.159999996,111115,0.833908946,0.002002694,298.1112885,298.0550388,287.8101108,2.355909571,3.172346458,31.30657777,12.35794458,24.93316364,3.167029494,0.157985116,1.920095829,1.246933665,0.099536653,7.545942327,0.765284629,61.76107114,96.30842466,0.013475709,ambient
ch07,ambient,sun,4,8:49:14,2008,0,4.695957281,0.198286788,102.164679,2.23497361,1.190700952,24.99955559,6,1.420000017,1,2.840000033,24.91637611,24.99955559,25.26667213,5,150.6995697,144.6811371,17.0008297,19.62808418,54.44854736,62.86285019,500.3943176,1799.680664,114.8953705,101.3289108,1.505790472,-0.435698718,1,-0.219565243,2.737391472,1,0,0.159999996,111115,0.833990529,0.002234974,298.1495556,298.0663761,287.9488998,2.232431017,3.179593344,31.37893537,11.75085119,24.95796585,3.171717918,0.185346057,1.988892392,1.182825526,0.116938344,10.35223564,0.706136826,64.07966174,142.4489039,0.021124442,ambient
ch07,ambient,sun,5,8:51:43,2156.5,0,8.960440559,0.224770797,147.6202501,2.38043793,1.128196819,24.96321487,6,1.420000017,1,2.840000033,24.91571999,24.96321487,25.26433372,5,230.4132385,219.0434265,17.38101578,20.17783165,55.66607285,64.62342072,500.3702698,1799.434937,115.0554886,101.3247681,1.536399603,-0.445658892,1,-0.219565243,2.737391472,1,0,0.159999996,111115,0.83395045,0.002380438,298.1132149,298.06572,287.9095834,2.160900735,3.172710931,31.31229404,11.13446239,24.93946743,3.16822054,0.208286069,2.044514112,1.123706428,0.131565846,14.9575876,0.673931432,66.17778153,214.7840622,0.02760829,ambient
ch07,ambient,sun,6,8:54:12,2306,0,13.2293876,0.220996579,206.7176754,2.282660833,1.098893747,24.92991447,6,1.420000017,1,2.840000033,24.89282227,24.92991447,25.26551437,5,330.1835938,313.4640503,17.72372627,20.40472412,56.84176254,65.43999481,500.4294434,1800.403809,116.0696487,101.3256531,1.598533392,-0.437878817,1,-0.219565243,2.737391472,1,0,0.159999996,111115,0.834049072,0.002282661,298.0799145,298.0428223,288.0646029,2.215332775,3.166415744,31.24989229,10.84516816,24.91136837,3.162914479,0.205041159,2.067521997,1.095392482,0.129494672,20.94580347,0.659462146,66.94727192,307.175433,0.028832755,ambient
ch07,ambient,sun,7,8:56:43,2456.5,0,15.70883001,0.188033613,252.9292433,2.002099984,1.120479816,25.0455265,6,1.420000017,1,2.840000033,24.91391563,25.0455265,25.26733971,5,419.8473816,400.0528259,18.05617142,20.40762138,57.83575439,65.36769104,500.4338379,1799.297729,119.0003662,101.3267746,1.449668646,-0.428792208,1,-0.219565243,2.737391472,1,0,0.159999996,111115,0.834056396,0.0020021,298.1955265,298.0639156,287.8876303,2.346670577,3.188318268,31.46570372,11.05808234,24.97972107,3.175835354,0.176357178,2.067838452,1.107996902,0.111216009,25.62850442,0.632239612,66.16136613,392.5856005,0.026473657,ambient
ch07,ambient,sun,8,8:59:22,2616,0,19.67581522,0.153505929,400.9986759,1.680278726,1.138635473,25.15711021,6,1.420000017,1,2.840000033,24.83550835,25.15711021,25.06581497,5,649.8652344,624.972229,18.46103287,20.43789482,59.41109467,65.77301025,499.5606384,1799.493164,125.2424927,101.3288116,0.953086615,-0.423337191,0.666666687,-0.219565243,2.737391472,1,0,0.159999996,111115,0.832601064,0.001680279,298.3071102,297.9855083,287.9188998,2.489082769,3.209583068,31.67493051,11.23703569,24.99630928,3.178978009,0.145634199,2.070947595,1.108030415,0.091697316,40.6327193,0.641626391,65.44264418,615.6192888,0.020916131,ambient
ch07,ambient,sun,9,9:02:13,2786.5,0,19.62220885,0.12332313,695.9962961,1.341988353,1.120672405,25.04755783,6,1.420000017,1,2.840000033,24.44554138,25.04755783,24.48007774,5,1000.229309,975.1303101,18.83297348,20.40936279,62.03685379,67.22956085,500.3583374,1799.206177,120.1172791,101.3276062,-0.172035456,-0.393468112,0.666666687,-0.219565243,2.737391472,1,0,0.159999996,111115,0.833930562,0.001341988,298.1975578,297.5955414,287.8729818,2.6279078,3.18870428,31.46925502,11.05989223,24.74654961,3.131947169,0.118190854,2.068031876,1.063915293,0.074313857,70.52363861,0.713746962,65.42057677,965.8028517,0.013291493,ambient
ch07,ambient,sun,10,9:05:02,2956,0,20.49263103,0.097715609,810.6683186,1.061826619,1.10951656,24.97265053,6,1.420000017,1,2.840000033,24.38800049,24.97265053,24.47976303,5,1199.928345,1173.861328,19.13192749,20.37920189,63.2392807,67.36206055,500.3810425,1799.204224,120.073082,101.3278198,-1.195350885,-0.384482592,1,-0.219565243,2.737391472,1,0,0.159999996,111115,0.833968404,0.001061827,298.1226505,297.5380005,287.8726693,2.776946405,3.174496657,31.32897424,10.94977235,24.68032551,3.119579346,0.094465348,2.064980097,1.054599248,0.059324501,82.14325332,0.690599732,65.31485682,1164.120113,0.011497725,ambient
ch07,ambient,sun,11,9:07:51,3124.5,0,20.24621279,0.084304902,1350.215183,0.945105671,1.139358179,25.07031059,6,1.420000017,1,2.840000033,24.40490532,25.07031059,24.47891045,5,1799.237305,1772.951172,19.15769768,20.26799011,63.25919342,66.92539978,500.3818359,1800.305298,119.8717575,101.3259125,-4.174720764,-0.372216433,1,-0.219565243,2.737391472,1,0,0.159999996,111115,0.833969727,0.000945106,298.2203106,297.5549053,288.0488412,2.828697656,3.193030771,31.51247981,11.24448969,24.73760796,3.130274753,0.081874473,2.053672592,1.076602161,0.051384492,136.8117854,0.76156366,64.42499569,1763.327092,0.007397165,ambient
ch08,elevated,sun,13,9:32:55,3214.5,0,17.91669421,0.174698828,216.9844416,2.531374467,1.52525106,25.19810867,6,1.420000017,1,2.840000033,23.37537193,25.19810867,22.47686005,6,419.9231873,397.2142944,13.6650095,16.65237236,48.14155579,58.66597748,499.9501953,1800.111328,223.6792908,101.6177292,-1.121696472,0.493164539,1,-0.219565243,2.737391472,1,0,0.159999996,111115,0.833250326,0.002531374,298.3481087,296.5253719,288.0178061,1.844280158,3.217427325,31.66206676,15.0096944,24.2867403,3.046951449,0.164575203,1.692176265,1.354775184,0.103723536,22.04946623,0.546265441,54.23566621,388.6975561,0.024999484,elevated
ch08,elevated,sun,14,9:35:24,3363,0,-0.318930295,0.188942953,50.81018315,2.645805445,1.481025989,25.06425285,6,1.420000017,1,2.840000033,23.03270721,25.06425285,22.09510803,6,48.91231537,49.13904953,13.71426201,16.8362236,49.32583618,60.55453491,499.928009,1799.11731,216.9197845,101.6173477,3.002388,0.504894733,1,-0.219565243,2.737391472,1,0,0.159999996,111115,0.833213348,0.002645805,298.2142529,296.1827072,287.8587631,1.755558791,3.191878377,31.41076252,14.57453892,24.04848003,3.003707536,0.177156848,1.710852388,1.292855148,0.111724868,5.163196049,1.034008261,55.41911062,49.29065372,-0.003585839,elevated
ch08,elevated,sun,15,9:37:53,3512.5,0,2.549486115,0.205806367,74.97222046,2.812540592,1.453244416,25.03429604,6,1.420000017,1,2.840000033,23.13567352,25.03429604,22.29221916,6,101.4217148,98.03131104,13.73640537,17.05405235,49.09739304,60.95550156,499.9764099,1800.219604,204.9067078,101.6145859,2.740951538,0.489832401,1,-0.219565243,2.737391472,1,0,0.159999996,111115,0.833294017,0.002812541,298.184296,296.2856735,288.0351303,1.688331396,3.186184883,31.35558597,14.30153362,24.08498478,3.010298084,0.191899948,1.732940467,1.277357616,0.121113876,7.618271134,0.764778311,56.41620218,96.81940744,0.014855733,elevated
ch08,elevated,sun,16,9:40:22,3661,0,5.562793575,0.224188517,97.56755081,2.976958923,1.420456313,24.97336006,6,1.420000017,1,2.840000033,23.12850761,24.97336006,22.29126549,6,149.8617706,142.6764679,13.75307846,17.26388359,49.17583084,61.72914505,499.9819031,1800.299561,203.3640442,101.6095047,2.374725342,0.486788273,1,-0.219565243,2.737391472,1,0,0.159999996,111115,0.833303172,0.002976959,298.1233601,296.2785076,288.0479232,1.610012505,3.174630974,31.24344502,13.97956143,24.05093384,3.004150149,0.207785972,1.754174661,1.249975488,0.131246597,9.913790513,0.683837722,57.49886162,140.0321822,0.022841485,elevated
ch08,elevated,sun,17,9:42:51,3810.5,0,10.42459313,0.239450467,138.4354268,3.091108143,1.387830579,24.87334824,6,1.420000017,1,2.840000033,23.10565376,24.87334824,22.29143143,6,230.3724518,217.057312,13.75418186,17.39910698,49.2478447,62.29876328,499.9815674,1801.295654,212.2669373,101.6096268,1.628799438,0.479721546,1,-0.219565243,2.737391472,1,0,0.159999996,111115,0.833302612,0.003091108,298.0233482,296.2556538,288.2072982,1.562961232,3.155747345,31.05756261,13.65845563,23.989501,2.993086147,0.22083139,1.767916766,1.225169381,0.139579792,14.06637205,0.637782831,58.43467873,212.1019597,0.028720043,elevated
ch08,elevated,sun,18,9:45:20,3959,0,16.0591358,0.249461753,194.6574731,3.188118691,1.378323628,24.8836937,6,1.420000017,1,2.840000033,23.34322548,24.8836937,22.70145416,6,331.4266968,310.9627991,13.75240326,17.51175117,48.53994751,61.80879974,499.9200745,1799.620605,223.964325,101.610199,0.368972778,0.479603291,1,-0.219565243,2.737391472,1,0,0.159999996,111115,0.833200124,0.003188119,298.0336937,296.4932255,287.9392904,1.539252179,3.15769615,31.07656693,13.56481576,24.11345959,3.015447684,0.229318708,1.779372521,1.236075163,0.145007328,19.77918457,0.625983152,58.87579871,303.329055,0.031170586,elevated
ch08,elevated,sun,19,9:47:49,4108.5,0,20.47234562,0.250553952,246.7001559,3.219926112,1.386358317,24.94960594,6,1.420000017,1,2.840000033,23.39236832,24.94960594,22.68244553,6,420.4919434,394.3982544,13.75885963,17.55536842,48.41820526,61.77833176,499.9433899,1799.577148,235.1076813,101.6087265,-1.121200562,0.476681232,1,-0.219565243,2.737391472,1,0,0.159999996,111115,0.833238983,0.003219926,298.0996059,296.5423683,287.9323373,1.520042333,3.170136946,31.19945555,13.64408713,24.17098713,3.025874905,0.230241321,1.783778629,1.242096276,0.145597612,25.06688867,0.625510263,58.80944603,384.6666818,0.031298976,elevated
ch08,elevated,sun,20,9:50:18,4257,0,27.96803784,0.246868451,407.3465494,3.202725432,1.397783426,24.9968605,6,1.420000017,1,2.840000033,23.40349197,24.9968605,22.68122864,6,649.4116211,613.4877319,13.75510597,17.53146553,48.3711319,61.65106201,499.9381409,1799.402222,245.3336792,101.6058273,-5.986251831,0.474876881,1,-0.219565243,2.737391472,1,0,0.159999996,111115,0.833230235,0.003202725,298.1468605,296.553492,287.904349,1.523688515,3.179082486,31.28838738,13.75692185,24.20017624,3.031177656,0.227125455,1.78129906,1.249878596,0.143604317,41.38878316,0.663984833,58.53602483,600.1930662,0.027276852,elevated
ch08,elevated,sun,21,9:53:06,4425.5,0,30.64100266,0.229645583,712.225136,3.010118224,1.404622626,24.90575218,6,1.420000017,1,2.840000033,23.01063538,24.90575218,22.08646965,6,999.4699097,959.2305908,13.74494076,17.29507256,49.49528885,62.2792511,499.934906,1799.600708,270.3215637,101.6030579,-15.03892517,0.488703251,0.666666687,-0.219565243,2.737391472,1,0,0.159999996,111115,0.833224843,0.003010118,298.0557522,296.1606354,287.9361068,1.585009656,3.161854883,31.11968232,13.82460976,23.95819378,2.98746146,0.212465394,1.757232258,1.230229203,0.134234454,72.36425171,0.74249627,57.87981201,944.6653256,0.018773797,elevated
ch08,elevated,sun,22,9:55:40,4579,0,31.34435844,0.206258208,877.271554,2.786804688,1.437010925,24.92603111,6,1.420000017,1,2.840000033,23.09980202,24.92603111,22.29172134,6,1200.408081,1158.91626,13.72654533,17.01404953,49.16288376,60.93738174,499.9640503,1799.803467,291.6079712,101.6025848,-21.28819275,0.496143818,1,-0.219565243,2.737391472,1,0,0.159999996,111115,0.833273417,0.002786805,298.0760311,296.249802,287.9685483,1.71112319,3.165682336,31.15749802,14.14344849,24.01291656,2.997299061,0.192292731,1.728671411,1.26862765,0.12136421,89.1330575,0.756975792,56.63566248,1144.016653,0.015517331,elevated
ch08,elevated,sun,23,9:58:33,4752.5,0,30.75913759,0.179305199,1430.473876,2.522840012,1.483411631,24.99185753,6,1.420000017,1,2.840000033,23.1046772,24.99185753,22.29116249,6,1799.847168,1757.611206,13.70224762,16.67944145,49.06278992,59.72304153,499.9527588,1799.36438,295.671814,101.605484,-42.44944763,0.50124979,1,-0.219565243,2.737391472,1,0,0.159999996,111115,0.833254598,0.00252284,298.1418575,296.2546772,287.8982943,1.839793276,3.178134353,31.27916159,14.59972014,24.04826736,3.003669178,0.168656936,1.694722722,1.308946456,0.1063182,145.3439906,0.813873894,55.01769303,1742.989785,0.009709161,elevated
ch09,ambient,sun,1,8:49:30,1587.5,0,12.09159414,0.079186074,147.1983635,1.243242933,1.596599147,25.13997841,6,1.420000017,1,2.840000033,24.33598709,25.13997841,24.03873062,7,419.5563965,404.4430237,14.41575527,15.88395691,47.80566025,52.67452621,499.9975281,1798.725952,137.4956055,101.3419418,-0.406684875,0.580601454,1,-0.219565243,2.737391472,1,0,0.159999996,111115,0.833329213,0.001243243,298.2899784,297.4859871,287.7961459,2.651003188,3.206310184,31.63853115,15.75457424,24.73798275,3.130344838,0.077038066,1.609711037,1.520633801,0.048337277,14.917368,0.363953276,50.37610203,398.6952589,0.015278019,ambient
ch09,ambient,sun,2,8:51:59,1736,0,-0.490775465,0.084799338,58.2088474,1.28709388,1.546300398,25.06575775,6,1.420000017,1,2.840000033,24.01178932,25.06575775,23.665308,7,49.54878998,50.06038284,14.72127724,16.24065018,49.777771,54.91529846,500.0183716,1800.233276,139.0144653,101.3422623,3.803836823,0.592661619,1,-0.219565243,2.737391472,1,0,0.159999996,111115,0.833363953,0.001287094,298.2157578,297.1617893,288.0373178,2.597773917,3.192164627,31.49884911,15.25819893,24.53877354,3.093286551,0.082340732,1.64586423,1.447422322,0.051678341,5.89901628,1.162772718,51.81375556,50.29367399,-0.005056087,ambient
ch09,ambient,sun,3,8:54:28,1885.5,0,1.65397978,0.098802579,68.85528586,1.442706854,1.494426218,25.03589249,6,1.420000017,1,2.840000033,24.00610352,25.03589249,23.66877174,7,100.6054535,98.45015717,14.99398327,16.69638824,50.71755981,56.4759903,499.9816895,1799.787231,149.8576508,101.3429871,3.67798996,0.584690809,1,-0.219565243,2.737391472,1,0,0.159999996,111115,0.833302816,0.001442707,298.1858925,297.1561035,287.9659506,2.519018211,3.186488075,31.44261056,14.74622232,24.520998,3.089998536,0.095480835,1.692061858,1.397936678,0.059965327,6.978000344,0.699392341,53.56010627,97.66393439,0.009070629,ambient
ch09,ambient,sun,4,8:56:57,2034,0,3.952000068,0.116370631,85.79392784,1.665714982,1.472980429,25.20923042,6,1.420000017,1,2.840000033,23.94224358,25.20923042,23.47216606,7,149.8019409,144.769928,15.27063942,17.23513985,51.84946442,58.51966858,499.9763184,1799.940063,171.795578,101.3381805,3.38727951,0.57567668,1,-0.219565243,2.737391472,1,0,0.159999996,111115,0.833293864,0.001665715,298.3592304,297.0922436,287.9904037,2.370209269,3.219558142,31.77043563,14.53529579,24.575737,3.100133633,0.111789973,1.746577713,1.353555919,0.070266327,8.694200549,0.592622577,54.94591933,142.8913364,0.015196602,ambient
ch09,ambient,sun,5,8:59:26,2183.5,0,7.914989282,0.133795991,117.8294009,1.815122442,1.404230272,25.08668518,6,1.420000017,1,2.840000033,23.39694405,25.08668518,22.68628883,7,230.0926666,220.1146698,15.54153347,17.68128967,54.53473282,62.04307175,499.9715576,1800.146851,216.5386658,101.3453979,2.755565643,0.582422972,1,-0.219565243,2.737391472,1,0,0.159999996,111115,0.833285929,0.001815122,298.2366852,296.546944,288.0234897,2.236761209,3.19614761,31.53717559,13.85588591,24.24181461,3.03875611,0.127776288,1.791917338,1.246838771,0.080380042,11.94146752,0.535309169,56.98300877,216.352263,0.020846554,ambient
ch09,ambient,sun,6,9:01:55,2332,0,12.5429171,0.138626895,159.0427368,1.826929898,1.366181999,25.03620529,6,1.420000017,1,2.840000033,23.3761673,25.03620529,22.68961334,7,330.8114014,315.0683289,15.8091383,17.96219063,55.5427475,63.10713577,499.9732361,1800.229126,290.8713074,101.3442917,1.476329803,0.579146147,1,-0.219565243,2.737391472,1,0,0.159999996,111115,0.833288727,0.00182693,298.1862053,296.5261673,288.0366537,2.234970744,3.186547485,31.44279201,13.48060138,24.20618629,3.032270503,0.132175125,1.820365486,1.211905017,0.08316585,16.11807351,0.50478808,58.08656229,309.1060268,0.023570389,ambient
ch09,ambient,sun,7,9:04:24,2481.5,0,15.91942545,0.131999952,193.1787918,1.723063974,1.350105004,25.02741241,6,1.420000017,1,2.840000033,23.37234306,25.02741241,22.68764496,7,420.1965332,400.2648926,16.07399559,18.10431099,56.48644638,63.62128067,499.9821472,1799.446167,384.1277466,101.3445282,0.078960419,0.581194639,1,-0.219565243,2.737391472,1,0,0.159999996,111115,0.833303579,0.001723064,298.1774124,296.5223431,287.9113803,2.288457903,3.18487786,31.42624389,13.3219329,24.19987774,3.031123387,0.126137238,1.834772856,1.196350531,0.079342342,19.57761352,0.482627369,58.46299759,392.6975601,0.023700105,ambient
ch09,ambient,sun,8,9:06:53,2630,0,23.26637434,0.123030391,296.5996402,1.610852339,1.349948979,25.09635544,6,1.420000017,1,2.840000033,23.39957809,25.09635544,22.68915749,7,649.4812622,620.3614502,16.33719444,18.23503304,57.3176918,63.97610092,499.9830017,1798.812256,502.4873657,101.3456116,-4.50447464,0.585386992,1,-0.219565243,2.737391472,1,0,0.159999996,111115,0.833305003,0.001610852,298.2463554,296.5495781,287.8099545,2.33995175,3.197989554,31.55528399,13.32025096,24.24796677,3.039877245,0.117921946,1.848040575,1.19183667,0.074143763,30.05907193,0.478107787,58.50734399,609.3017301,0.02234121,ambient
ch09,ambient,sun,9,9:09:22,2779.5,0,29.73922807,0.112147505,508.6062953,1.473474701,1.349547215,25.13868332,6,1.420000017,1,2.840000033,23.18852043,25.13868332,22.27272034,7,1000.63031,963.2332153,16.58275032,18.31884766,58.92490005,65.09392548,499.9082642,1799.587891,626.8145142,101.3445663,-13.5255928,0.583884001,1,-0.219565243,2.737391472,1,0,0.159999996,111115,0.83318044,0.001473475,298.2886833,296.3385204,287.9340561,2.379249846,3.206062887,31.63527165,13.31642399,24.16360188,3.024534521,0.107887195,1.856515672,1.16801885,0.067799741,51.54448444,0.528019889,58.4681287,949.0966106,0.018320548,ambient
ch09,ambient,sun,10,9:11:56,2933,0,31.2681286,0.101429401,632.8353369,1.335015516,1.346965163,25.16556931,6,1.420000017,1,2.840000033,23.16850281,25.16556931,22.29625511,7,1200.007446,1160.620483,16.82195282,18.39473724,59.84815598,65.44371796,499.9254456,1800.243408,720.0942383,101.3461075,-19.21419144,0.595328093,1,-0.219565243,2.737391472,1,0,0.159999996,111115,0.833209076,0.001335016,298.3155693,296.3185028,288.0389389,2.446426482,3.211200181,31.68548117,13.29074393,24.16703606,3.025157742,0.097931808,1.864235018,1.160922724,0.061512292,64.13539807,0.545256047,58.46041575,1145.757113,0.01595406,ambient
ch09,ambient,sun,11,9:14:26,3083.5,0,33.8932859,0.08958565,1102.878796,1.174805563,1.336535056,25.11676407,6,1.420000017,1,2.840000033,22.76028824,25.11676407,21.70978546,7,1798.504028,1755.358643,17.02384949,18.40762711,62.07542419,67.12120056,500.0139465,1799.803467,742.3074341,101.335434,-39.71773148,0.604714155,1,-0.219565243,2.737391472,1,0,0.159999996,111115,0.833356578,0.001174806,298.2667641,295.9102882,287.9685483,2.481955572,3.201879937,31.59684438,13.18921728,23.93852615,2.983932684,0.086846154,1.865344881,1.118587803,0.0545185,111.7607014,0.628292572,58.49658507,1739.247398,0.011399422,ambient
ch10,elevated,sun,23,10:23:01,7444.5,0,13.65644356,0.159402254,251.2135386,2.098252781,1.378193312,24.84840012,6,1.420000017,1,2.840000033,22.21816444,24.84840012,20.74622345,8,419.4772034,402.0881653,14.97740078,17.44978714,56.5882988,65.92958069,500.3195496,1799.918213,196.2398071,101.5977325,1.817454815,-0.281376332,1,-0.219565243,2.737391472,1,0,0.159999996,111115,0.833865916,0.002098253,297.9984001,295.3681644,287.9869076,1.965302253,3.151052118,31.01498468,13.56519754,23.53328228,2.912030293,0.150930873,1.772858807,1.139171486,0.095057996,25.52272591,0.624772277,57.558397,395.5965461,0.019869815,elevated
ch10,elevated,sun,24,10:25:30,7593,0,-0.163125338,0.161897857,51.7372556,2.142702377,1.38676524,24.90787315,6,1.420000017,1,2.840000033,22.76376915,24.90787315,21.96465874,8,51.12532043,51.18940735,14.95089436,17.47550583,54.64676666,63.87443542,500.3362122,1799.972534,178.6598511,101.5987625,1.337684155,-0.294697255,1,-0.219565243,2.737391472,1,0,0.159999996,111115,0.833893687,0.002142702,298.0578732,295.9137691,287.995599,2.005966045,3.162255007,31.12493626,13.64943043,23.83582115,2.965564438,0.153166408,1.775489766,1.190074672,0.096476962,5.256441145,1.010702375,57.47813723,51.26694932,-0.001828886,elevated
ch10,elevated,sun,25,10:27:59,7742.5,0,2.089905139,0.162740805,73.82108851,2.181844817,1.404778098,25.01537514,6,1.420000017,1,2.840000033,22.8490181,25.01537514,21.93868256,8,100.0624619,97.30175781,14.93072414,17.50131035,54.28273392,63.62845993,500.3511658,1800.006714,237.0774384,101.5818405,1.548919201,-0.299746007,1,-0.219565243,2.737391472,1,0,0.159999996,111115,0.83391861,0.002181845,298.1653751,295.9990181,288.0010678,1.982029546,3.182593415,31.33033816,13.82902781,23.93219662,2.98279781,0.153920674,1.777815317,1.204982494,0.096955792,7.498882039,0.758681962,57.2080266,96.308317,0.012414229,elevated
ch10,elevated,sun,26,10:30:28,7891,0,3.925246488,0.16773497,102.7427972,2.268182371,1.419086505,25.16145325,6,1.420000017,1,2.840000033,22.93233681,25.16145325,21.94002151,8,149.9942322,144.8930664,14.96062469,17.63261604,54.12284088,63.78926468,500.3433228,1798.715088,312.954895,101.5916595,1.669890881,-0.301058263,1,-0.219565243,2.737391472,1,0,0.159999996,111115,0.833905538,0.002268182,298.3114532,296.0823368,287.7944076,1.925344842,3.21041323,31.60114959,13.96853355,24.04689503,3.003421666,0.158380748,1.791326726,1.21209494,0.099787931,10.43781127,0.709093953,57.20909473,143.0271922,0.015700497,elevated
ch10,elevated,sun,27,10:32:57,8040.5,0,7.065267087,0.174669619,148.4752514,2.313436873,1.393016646,25.11143112,6,1.420000017,1,2.840000033,22.619524,25.11143112,21.35426331,8,229.8040161,220.7203064,15.07164478,17.79615784,55.56551361,65.61013031,500.4049988,1798.993164,344.9094849,101.5863266,2.001479626,-0.298452824,1,-0.219565243,2.737391472,1,0,0.159999996,111115,0.834008331,0.002313437,298.2614311,295.769524,287.8388998,1.867761023,3.200862949,31.50879706,13.71263922,23.86547756,2.97085815,0.164549281,1.807846302,1.163011847,0.103707062,15.08305539,0.672685055,57.96525107,217.3618168,0.018841395,elevated
ch10,elevated,sun,28,10:35:26,8189.5,0,11.42781618,0.180015691,202.7519674,2.341749507,1.370377187,25.08458328,6,1.420000017,1,2.840000033,22.40241241,25.08458328,20.95834923,8,330.1134033,315.5227661,15.21278286,17.97060776,56.82434845,67.12566376,500.3218689,1800.134644,345.6300049,101.5753174,1.864211559,-0.299335927,1,-0.219565243,2.737391472,1,0,0.159999996,111115,0.833869781,0.00234175,298.2345833,295.5524124,288.0215365,1.83019486,3.195747373,31.46184974,13.49124199,23.74349785,2.949137368,0.1692854,1.825370187,1.123767181,0.106717795,20.59459544,0.642590612,58.65282685,310.0905296,0.021615421,elevated
ch10,elevated,sun,29,10:37:55,8338,0,14.94509261,0.186442827,258.2584484,2.376441947,1.345589739,25.04337883,6,1.420000017,1,2.840000033,22.37341881,25.04337883,20.96331787,8,419.8840332,400.8208618,15.33879852,18.1367569,57.39845276,67.86853027,500.3664856,1799.942627,345.6197815,101.5793762,1.660476208,-0.297142476,1,-0.219565243,2.737391472,1,0,0.159999996,111115,0.833944143,0.002376442,298.1933788,295.5234188,287.9908139,1.813567266,3.187910191,31.38343933,13.24668243,23.70839882,2.942913112,0.17495709,1.842320452,1.100592659,0.110325184,26.2337321,0.644323869,59.38551107,393.7166806,0.022542148,elevated
ch10,elevated,sun,30,10:40:34,8497.5,0,20.09340856,0.192011389,435.7772298,2.404319969,1.324256161,25.01361847,6,1.420000017,1,2.840000033,22.36910248,25.01361847,20.96504593,8,650.0323486,624.1375732,15.46074963,18.29118538,57.86988449,68.46426392,500.3488464,1799.622314,325.8979187,101.5792007,1.011733532,-0.304768056,1,-0.219565243,2.737391472,1,0,0.159999996,111115,0.833914744,0.00240432,298.1636185,295.5191025,287.9395639,1.801927919,3.182260152,31.32787154,13.03668616,23.69136047,2.939895775,0.179851681,1.858003991,1.081891784,0.113439991,44.2659027,0.698207011,60.02997828,614.5861291,0.019626328,elevated
ch10,elevated,sun,31,10:43:28,8671,0,21.89809773,0.192731511,760.9835813,2.399493924,1.316828712,25.03734779,6,1.420000017,1,2.840000033,22.37342453,25.03734779,20.96327972,8,1000.653809,971.5977783,15.58461285,18.40912247,58.31667328,68.88581848,500.3320923,1799.220581,298.0188904,101.5765839,-0.404404163,-0.306108922,1,-0.219565243,2.737391472,1,0,0.159999996,111115,0.83388682,0.002399494,298.1873478,295.5234245,287.8752865,1.800987593,3.186764484,31.37302282,12.96390036,23.70538616,2.9423794,0.180483333,1.869935772,1.072443628,0.113842074,77.29811257,0.783229026,60.31644573,961.1884714,0.013741482,elevated
ch10,elevated,sun,32,10:46:13,8836.5,0,22.60694169,0.184760692,940.5731374,2.31016599,1.319024416,25.05443001,6,1.420000017,1,2.840000033,22.37969398,25.05443001,20.96619225,8,1199.885864,1169.53418,15.69962978,18.41908073,58.72588348,68.89823914,500.3101501,1799.017578,345.3631287,101.5786896,-1.462387562,-0.303183049,1,-0.219565243,2.737391472,1,0,0.159999996,111115,0.83385025,0.002310166,298.20443,295.529694,287.8428061,1.845741271,3.190010501,31.40432815,12.98524742,23.717062,2.94444832,0.173475002,1.870986084,1.073462236,0.109382323,95.54218675,0.804228858,60.18524033,1158.787922,0.011741615,elevated
ch10,elevated,sun,33,10:48:42,8985,0,23.21041812,0.174441078,1507.803703,2.215758077,1.335192001,25.13998032,6,1.420000017,1,2.840000033,22.40701485,25.13998032,20.96321869,8,1799.445923,1766.916382,15.81333542,18.42157745,59.04920578,68.78874969,500.3232727,1800.421265,370.5312805,101.572113,-4.918442249,-0.298881978,1,-0.219565243,2.737391472,1,0,0.159999996,111115,0.833872121,0.002215758,298.2899803,295.5570148,288.0673959,1.889516431,3.206310548,31.56683909,13.14526163,23.77349758,2.954466467,0.16434644,1.871118547,1.083347919,0.10357815,153.1508081,0.853353174,59.76143508,1755.883261,0.007899659,elevated
ch11,ambient,sun,34,11:04:49,9952.5,0,16.1684236,0.147603185,209.8101099,2.047130378,1.444715801,25.30855751,6,1.420000017,1,2.840000033,23.58470726,25.30855751,22.86234856,9,420.3089905,399.9397888,15.25630474,17.66763878,53.03147507,61.4133606,500.3775635,1799.148071,183.0442963,101.5374603,1.578811169,-0.290140599,1,-0.219565243,2.737391472,1,0,0.159999996,111115,0.833962606,0.00204713,298.4585575,296.7347073,287.863685,2.10797282,3.238642972,31.89604075,14.22840197,24.44663239,3.076275916,0.140310818,1.793927172,1.282348744,0.088321521,21.30358571,0.524604242,56.51765124,392.2540946,0.023296158,ambient
ch11,ambient,sun,35,11:07:18,10101,0,-0.023246043,0.155548268,49.93288149,2.053789223,1.37958256,24.9406414,6,1.420000017,1,2.840000033,22.75714302,24.9406414,21.7320652,9,50.89367294,50.79644012,15.19791698,17.6174984,55.53918457,64.38129425,500.3195801,1800.533569,169.9962006,101.5388107,1.576266766,-0.281849355,1,-0.219565243,2.737391472,1,0,0.159999996,111115,0.833865967,0.002053789,298.0906414,295.907143,288.0853647,2.048089918,3.168442396,31.20424961,13.58675122,23.84889221,2.967896624,0.147471195,1.788859835,1.179036788,0.092862664,5.070125403,0.982999623,57.68669511,50.80749018,-0.000263935,ambient
ch11,ambient,sun,36,11:09:47,10250.5,0,2.432303651,0.17708624,71.74530069,2.265294438,1.346217448,24.85190773,6,1.420000017,1,2.840000033,22.98931694,24.85190773,22.34739685,9,99.89002991,96.7108078,15.11308002,17.78105354,54.45856476,64.07236481,500.3831787,1800.943115,167.973999,101.5403519,1.644664288,-0.290020436,1,-0.219565243,2.737391472,1,0,0.159999996,111115,0.833971965,0.002265294,298.0019077,296.1393169,288.150892,1.981338023,3.151711881,31.03900886,13.25795531,23.92061234,2.980721748,0.16669226,1.805494433,1.175227315,0.105069165,7.285043077,0.741854011,58.78721191,95.55460713,0.014964046,ambient
ch11,ambient,sun,37,11:12:16,10399,0,5.274671325,0.198533667,96.38373657,2.495610074,1.332137816,24.86471558,6,1.420000017,1,2.840000033,23.24478531,24.86471558,22.71676445,9,150.7553558,143.9992676,15.0046711,17.94359779,53.23862457,63.66633606,500.3520203,1800.460449,169.6786041,101.5395126,1.752864361,-0.305281132,1,-0.219565243,2.737391472,1,0,0.159999996,111115,0.833920034,0.00249561,298.0147156,296.3947853,288.0736654,1.892227064,3.154121991,31.06300108,13.11940329,24.05475044,3.004838694,0.185561747,1.821984175,1.182854519,0.117075717,9.786757637,0.669334908,59.53317294,141.4919414,0.022193343,ambient
ch11,ambient,sun,38,11:14:45,10548.5,0,9.677133069,0.219820713,138.8299102,2.720390975,1.320382165,24.88347054,6,1.420000017,1,2.840000033,23.38510704,24.88347054,22.9141922,9,230.0124512,217.6983643,14.89359379,18.09660912,52.39154816,63.65887833,500.3712158,1800.716797,161.7870026,101.5257568,1.812617779,-0.31372115,1,-0.219565243,2.737391472,1,0,0.159999996,111115,0.833952026,0.002720391,298.0334705,296.535107,288.1146811,1.791342103,3.157654101,31.10200012,13.005391,24.13428879,3.019219471,0.204028564,1.837271937,1.181947535,0.12884849,14.0948117,0.637716827,60.2099583,213.0983187,0.027342298,ambient
ch11,ambient,sun,39,11:17:14,10697,0,14.77687692,0.238216345,199.3255283,2.89732162,1.305386257,24.85727692,6,1.420000017,1,2.840000033,23.49127388,24.85727692,23.1049881,9,329.8264771,311.0263367,14.78527164,18.19634628,51.67673111,63.59894943,500.3586121,1801.123291,163.9549103,101.5223465,1.816676617,-0.315817326,1,-0.219565243,2.737391472,1,0,0.159999996,111115,0.83393102,0.002897322,298.0072769,296.6412739,288.1797201,1.717403307,3.152722029,31.05446375,12.85811746,24.1742754,3.026471875,0.21978131,1.847335772,1.179136103,0.138908607,20.23599535,0.640863827,60.83473083,304.0021171,0.02957043,ambient
ch11,ambient,sun,40,11:19:43,10846.5,0,18.72383008,0.24065873,255.4465879,2.970307711,1.325550202,24.96985054,6,1.420000017,1,2.840000033,23.56476593,24.96985054,23.11011887,9,419.7243958,395.8602905,14.71032143,18.20752335,51.18598938,63.35483932,500.3244019,1799.46875,167.7077637,101.5193787,1.718440533,-0.317631215,1,-0.219565243,2.737391472,1,0,0.159999996,111115,0.833874003,0.002970308,298.1198505,296.7147659,287.9149936,1.670448784,3.173966659,31.26463835,13.057115,24.26730824,3.043404285,0.221858652,1.848416457,1.194987828,0.140236463,25.93277889,0.645294802,60.5227936,386.9598784,0.029285168,ambient
ch11,ambient,sun,41,11:22:12,10995,0,25.27737969,0.232110953,418.9606035,2.936031772,1.354602952,25.09287262,6,1.420000017,1,2.840000033,23.6204834,25.09287262,23.10696793,9,649.0949707,616.6104126,14.69452953,18.15160561,50.95920181,62.94800568,500.3195801,1798.581665,188.7581787,101.5184631,1.15508604,-0.312864751,1,-0.219565243,2.737391472,1,0,0.159999996,111115,0.833865967,0.002936032,298.2428726,296.7704834,287.77306,1.677176151,3.197326057,31.4950203,13.34341469,24.35667801,3.059747931,0.21457399,1.842723105,1.217024827,0.135581281,42.53223658,0.679457555,59.83727013,604.5947569,0.025017243,ambient
ch11,ambient,sun,42,11:25:02,11165.5,0,27.41338902,0.195094408,708.1832599,2.58989822,1.404757911,25.11391258,6,1.420000017,1,2.840000033,23.607481,25.11391258,23.10878944,9,1000.912842,965.0438843,14.64686108,17.69749641,50.83244324,61.41978455,500.3672791,1799.89563,192.8887177,101.5159531,-0.157352924,-0.289026707,1,-0.219565243,2.737391472,1,0,0.159999996,111115,0.833945465,0.002589898,298.2639126,296.757481,287.9832943,1.855846158,3.201336126,31.5353009,13.83780449,24.36069679,3.060484672,0.182553833,1.796578215,1.263906457,0.115160247,71.89189857,0.733835291,57.90399357,952.012872,0.016673563,ambient
ch11,ambient,sun,43,11:27:37,11320,0,27.85607471,0.157991282,844.0732453,2.196658527,1.453612032,25.10880661,6,1.420000017,1,2.840000033,23.58157158,25.10880661,23.10881805,9,1199.468018,1163.001221,14.61842918,17.20720482,50.81142807,59.80961227,500.3585815,1800.508057,194.530014,101.5127411,-0.622440815,-0.28631255,1,-0.219565243,2.737391472,1,0,0.159999996,111115,0.833930969,0.002196659,298.2588066,296.7315716,288.0812826,2.059675736,3.20036256,31.52670813,14.31950331,24.34518909,3.057642588,0.149665292,1.746750528,1.310892061,0.094254834,85.68418881,0.72577159,55.89875988,1149.759777,0.013543003,ambient
ch11,ambient,sun,44,11:30:17,11480.5,0,27.69726955,0.129958798,1369.981957,1.884300576,1.501976912,25.11682701,6,1.420000017,1,2.840000033,23.5634861,25.11682701,23.10990524,9,1799.290283,1762.094116,14.52476597,16.74657059,50.53868103,58.26941299,500.3351746,1800.553711,207.3350067,101.5082474,-3.975224018,-0.269232243,1,-0.219565243,2.737391472,1,0,0.159999996,111115,0.833891958,0.001884301,298.266827,296.7134861,288.0885873,2.219409334,3.201891942,31.54317038,14.79659979,24.34015656,3.056720775,0.12427209,1.69991503,1.356805745,0.078161708,139.0644674,0.777473771,54.0337418,1748.928161,0.008557167,ambient
ch12,elevated,sun,1,10:19:47,651,0,19.66805118,0.215942316,232.2529649,3.062754758,1.512870801,25.16978645,6,1.420000017,1,2.840000033,23.14373779,25.16978645,22.05243492,10,420.1073303,395.0500488,13.11196041,16.72632408,46.82876587,59.73729706,499.9263611,1799.223755,217.2722626,101.5845337,-0.822784424,0.513472319,1,-0.219565243,2.737391472,1,0,0.159999996,111115,0.833210602,0.003062755,298.3197865,296.2937378,287.8757943,1.538160287,3.212006633,31.6190518,14.89272772,24.15676212,3.023293606,0.200683166,1.699135832,1.324157774,0.126714117,23.59330914,0.587907698,55.14347498,385.7007993,0.028119327,elevated
ch12,elevated,sun,2,10:22:16,799.5,0,-0.194673437,0.23245084,49.7198201,3.163163576,1.459490465,24.96812248,6,1.420000017,1,2.840000033,22.74129486,24.96812248,21.70352364,10,49.39514542,49.44108963,13.14230156,16.874403,48.0941658,61.75176239,499.952179,1800.183472,197.4669037,101.5828018,3.124774933,0.523112059,1,-0.219565243,2.737391472,1,0,0.159999996,111115,0.833253632,0.003163164,298.1181225,295.8912949,288.029349,1.461911531,3.173639601,31.24189867,14.36749567,23.85470867,2.968934933,0.214864426,1.714149136,1.254785797,0.135766814,5.050678632,1.005637628,56.44348624,49.53362806,-0.002218301,elevated
ch12,elevated,sun,3,10:24:45,949,0,2.943827974,0.249228028,74.89488953,3.299025063,1.427578717,24.84911919,6,1.420000017,1,2.840000033,23.04109192,24.84911919,22.31130409,10,101.0906525,97.17287445,13.07510281,16.96725273,46.98789597,60.97508621,499.9370117,1801.205444,197.1645203,101.5844269,2.8996315,0.512146711,1,-0.219565243,2.737391472,1,0,0.159999996,111115,0.833228353,0.003299025,297.9991192,296.1910919,288.1928647,1.448897216,3.151187362,31.0203784,14.05312567,23.94510555,2.985112757,0.229121189,1.723608644,1.261504113,0.144880963,7.608154429,0.770738644,57.32813315,95.77351962,0.017621172,elevated
ch12,elevated,sun,4,10:27:15,1099,0,6.08177719,0.267207108,100.1269232,3.519677716,1.428588664,24.94189072,6,1.420000017,1,2.840000033,23.25628471,24.94189072,22.48734093,10,150.1370239,142.2373047,12.97797966,17.12968063,46.03551865,60.76244354,499.9473877,1800.02478,247.8479004,101.5833206,2.572498322,0.498884916,1,-0.219565243,2.737391472,1,0,0.159999996,111115,0.833245646,0.003519678,298.0918907,296.4062847,288.0039584,1.347225215,3.168678504,31.1929014,14.06322076,24.09908772,3.012847604,0.244228389,1.74008984,1.272757764,0.154553318,10.17122534,0.703942777,57.77213551,139.3463191,0.025214678,elevated
ch12,elevated,sun,5,10:29:44,1247.5,0,11.23831038,0.286957163,143.4125638,3.740861636,1.422484839,25.02894402,6,1.420000017,1,2.840000033,23.17962456,25.02894402,22.28950882,10,230.0185089,215.5634918,12.94153214,17.35308647,46.11675262,61.83718872,499.9525146,1800.217651,304.9959106,101.5775375,1.886417389,0.499296904,1,-0.219565243,2.737391472,1,0,0.159999996,111115,0.833254191,0.003740862,298.178944,296.3296246,288.0348178,1.209912975,3.185168631,31.35701759,14.00393112,24.10428429,3.013787513,0.260623444,1.762683792,1.25110372,0.16506718,14.56749508,0.665291523,58.42619019,210.2213373,0.031234301,elevated
ch12,elevated,sun,6,10:32:14,1397.5,0,17.42460354,0.304156728,202.8049897,3.937489018,1.41987004,25.16661644,6,1.420000017,1,2.840000033,23.23782539,25.16661644,22.28776932,10,331.0249939,308.6543579,12.99596786,17.63817978,46.14524078,62.62850571,499.9391174,1798.976929,325.7576294,101.5711594,0.705783844,0.491993666,1,-0.219565243,2.737391472,1,0,0.159999996,111115,0.833231862,0.003937489,298.3166164,296.3878254,287.8363022,1.093719015,3.211400409,31.61724676,13.97906698,24.20222092,3.031549414,0.274733476,1.791530369,1.240019045,0.174129866,20.59913793,0.657061806,59.05528245,300.3715359,0.034258069,elevated
ch12,elevated,sun,7,10:34:44,1548,0,21.97974729,0.318027139,263.2410232,3.999858245,1.385430677,25.09103012,6,1.420000017,1,2.840000033,22.97637749,25.09103012,21.89287186,10,419.9057922,391.6454773,13.12107563,17.8360939,47.32966614,64.33743286,499.9153137,1798.891602,325.9797058,101.5662079,-0.675746918,0.497288465,1,-0.219565243,2.737391472,1,0,0.159999996,111115,0.83319219,0.003999858,298.2410301,296.1263775,287.8226498,1.036626604,3.196975099,31.4767595,13.64066559,24.0337038,3.001043432,0.286000416,1.811544421,1.189499011,0.181375903,26.73639248,0.672141103,60.04322736,381.1973581,0.034620779,elevated
ch12,elevated,sun,8,10:37:17,1700.5,0,26.20496981,0.313869249,457.8827104,3.946015603,1.382939408,25.12505722,6,1.420000017,1,2.840000033,22.97205544,25.12505722,21.89377594,10,650.300293,615.9301147,13.27332306,17.92469978,47.89081955,64.67321777,499.8887024,1798.751465,321.3538818,101.5650253,-5.426418304,0.49679637,0.666666687,-0.219565243,2.737391472,1,0,0.159999996,111115,0.833147837,0.003946016,298.2750572,296.1220554,287.8002279,1.059257516,3.203461996,31.54099539,13.61629561,24.04855633,3.003721297,0.282633362,1.820522588,1.183198709,0.179209592,46.50486908,0.743400427,60.14024407,603.4735271,0.026115036,elevated
ch12,elevated,sun,9,10:39:50,1853.5,0,27.10174661,0.289552919,781.7706437,3.71499539,1.40051399,25.1414814,6,1.420000017,1,2.840000033,22.85143852,25.1414814,21.70326233,10,1000.913574,964.0861206,13.40289879,17.78250694,48.7129631,64.63069153,499.8986206,1798.509399,297.522644,101.5651627,-14.78689194,0.505657911,0.666666687,-0.219565243,2.737391472,1,0,0.159999996,111115,0.833164368,0.003714995,298.2914814,296.0014385,287.7614975,1.161248594,3.2065972,31.57182164,13.7893147,23.99645996,2.994337658,0.262762865,1.80608321,1.188254448,0.166440458,79.40066259,0.810892955,59.36215302,951.2032482,0.016913504,elevated
ch12,elevated,sun,10,10:42:21,2005,0,26.82671515,0.26397334,963.1630807,3.450637234,1.415430231,25.10102844,6,1.420000017,1,2.840000033,22.56382561,25.10102844,21.31191635,10,1199.721802,1162.707397,13.49114323,17.56005859,49.89553833,64.94398499,499.8939819,1799.570557,291.0746765,101.5628586,-20.75503159,0.521178007,0.666666687,-0.219565243,2.737391472,1,0,0.159999996,111115,0.833156637,0.003450637,298.2510284,295.7138256,287.9312826,1.268880436,3.198879978,31.4965532,13.9364946,23.83242702,2.964959108,0.241524074,1.783449748,1.181509361,0.152820785,97.82159576,0.828379593,58.49731371,1149.955262,0.013646538,elevated
ch12,elevated,sun,11,10:44:56,2160,0,26.6680475,0.235537762,1529.428455,3.184749158,1.450854077,25.13378906,6,1.420000017,1,2.840000033,22.53635788,25.13378906,21.31843948,10,1800.314819,1761.574707,13.5162487,17.27254295,50.07257462,63.98822403,499.9193726,1799.904663,331.4797363,101.5643387,-41.84597397,0.532856703,0.666666687,-0.219565243,2.737391472,1,0,0.159999996,111115,0.833198954,0.003184749,298.2837891,295.6863579,287.9847397,1.400284599,3.20512848,31.55761679,14.28507384,23.83507347,2.965431083,0.217499279,1.754274402,1.211156681,0.137450237,155.3353896,0.86821663,57.15397968,1748.897994,0.008715117,elevated
ch01,ambient,sun,10,9:08:19,2890.5,0,28.78566007,0.243694357,938.1728428,2.845122473,1.250582111,25.07843399,6,1.420000017,1,2.840000033,21.61672401,25.07843399,20.54713058,10,1200.642334,1162.111938,15.85517216,19.2054863,61.91371536,74.99653625,499.7406921,1799.243408,232.1865997,101.2207947,-8.715419769,-0.076476634,0.666666687,-0.219565243,2.737391472,1,0,0.159999996,111115,0.832901154,0.002845122,298.228434,294.766724,287.8789389,1.4632615,3.194576696,31.56047832,12.35499202,23.347579,2.879590453,0.224435983,1.943994585,0.935595868,0.141884309,94.96260069,0.807299892,63.0076504,1148.428614,0.01579303,ambient
ch01,ambient,sun,11,9:10:48,3040,0,28.39784771,0.223088933,1509.608541,2.678662721,1.277547219,25.17772865,6,1.420000017,1,2.840000033,21.52916336,25.17772865,20.33517838,10,1800.258911,1760.502197,15.9710741,19.12560654,62.70358658,75.08850861,499.7441101,1800.137207,273.0932312,101.2244339,-20.908535,-0.061122477,1,-0.219565243,2.737391472,1,0,0.159999996,111115,0.83290685,0.002678663,298.3277287,294.6791634,288.0219467,1.5268145,3.213525914,31.74654369,12.62093716,23.35344601,2.880610484,0.206841063,1.935978695,0.944631789,0.130643437,152.8092699,0.85748745,62.17808123,1747.003221,0.010107158,ambient
ch01,ambient,sun,1,8:45:49,1541,0,19.99689061,0.184321144,205.7266779,2.489333286,1.419067643,25.33278275,6,1.420000017,1,2.840000033,22.08235168,25.33278275,21.10855675,11,421.0062866,395.8165588,15.09079742,18.02544212,57.26756287,68.40414429,499.7801514,1799.002563,188.112381,101.2038956,1.059185028,-0.069894373,1,-0.219565243,2.737391472,1,0,0.159999996,111115,0.832966919,0.002489333,298.4827827,295.2323517,287.8404037,1.674625798,3.243312605,32.04730991,14.02186779,23.70756721,2.942765779,0.173087454,1.824244962,1.118520817,0.109135801,20.82034122,0.519752581,57.85788675,386.3109948,0.029949389,ambient
ch01,ambient,sun,2,8:48:18,1689.5,0,-0.127602354,0.195246047,50.17803059,2.486782912,1.34359405,24.98461533,6,1.420000017,1,2.840000033,21.31928062,24.98461533,20.1507988,11,50.14982986,50.15328979,15.1812439,18.1126194,60.36494446,72.02092743,499.7805481,1800.027344,196.2908783,101.2094498,1.22750473,-0.07850796,1,-0.219565243,2.737391472,1,0,0.159999996,111115,0.83296758,0.002486783,298.1346153,294.4692806,288.0043686,1.626020759,3.176762294,31.38800083,13.27538143,23.15194798,2.845758679,0.182686597,1.833168243,1.012590436,0.11524478,5.078490866,1.000493304,59.42187551,50.21394584,-0.001510013,ambient
ch01,ambient,sun,3,8:50:47,1839,0,2.945561666,0.212235495,69.65129239,2.618367402,1.308655983,24.92914963,6,1.420000017,1,2.840000033,21.4097805,24.92914963,20.35147667,11,98.84211731,95.00731659,15.26821041,18.35387802,60.37592697,72.57775116,499.7901001,1799.563843,202.4863281,101.2110519,1.484027863,-0.085916102,1,-0.219565243,2.737391472,1,0,0.159999996,111115,0.8329835,0.002618367,298.0791496,294.5597805,287.9302084,1.575816977,3.166271284,31.28384918,12.92997116,23.16946507,2.848773787,0.197477819,1.857615302,0.991158485,0.124669783,7.049480572,0.733115037,60.56404316,93.60713765,0.019057855,ambient
ch01,ambient,sun,4,8:53:16,1987.5,0,6.263668603,0.228754407,92.24683233,2.756813703,1.285070693,24.94042969,6,1.420000017,1,2.840000033,21.42134285,24.94042969,20.35230637,11,149.4759216,141.4878845,15.36017609,18.60824394,60.6956749,73.53040314,499.7766724,1798.744141,207.2937317,101.2095337,1.620929718,-0.090756953,1,-0.219565243,2.737391472,1,0,0.159999996,111115,0.832961121,0.002756814,298.0904297,294.5713428,287.7990561,1.50188428,3.168402385,31.30537479,12.69713085,23.18088627,2.850741152,0.211702349,1.883331692,0.96740946,0.133747145,9.336258884,0.6519769,61.50369547,138.5104365,0.027812978,ambient
ch01,ambient,sun,5,8:55:45,2137,0,11.57761717,0.245424754,130.8775674,2.882837209,1.259256677,24.93245506,6,1.420000017,1,2.840000033,21.43471718,24.93245506,20.34988213,11,230.0795441,215.4357452,15.45208168,18.84753227,61.01168823,74.41843414,499.8163452,1799.99646,206.8460693,101.2142563,1.610141754,-0.096292078,1,-0.219565243,2.737391472,1,0,0.159999996,111115,0.833027242,0.002882837,298.0824551,294.5847172,287.9994272,1.441250661,3.166895638,31.2890274,12.44149513,23.18358612,2.85120639,0.225902869,1.907638962,0.943567429,0.142822373,13.24667565,0.607501635,62.4586669,209.9323005,0.034445511,ambient
ch01,ambient,sun,6,8:58:14,2285.5,0,17.57754521,0.258626683,185.2461153,2.970818143,1.236631581,24.91059685,6,1.420000017,1,2.840000033,21.43286896,24.91059685,20.3480835,11,329.5482178,307.348999,15.53140354,19.03019333,61.33216095,75.14857483,499.7641602,1800.053955,200.4171448,101.2148056,1.301395416,-0.095649302,1,-0.219565243,2.737391472,1,0,0.159999996,111115,0.832940267,0.002970818,298.0605968,294.582869,288.0086264,1.398145023,3.162768899,31.2480855,12.21789217,23.1717329,2.84916434,0.237040423,1.926137318,0.923027022,0.14994937,18.74964955,0.602722364,63.2396766,298.9934759,0.037178011,ambient
ch01,ambient,sun,7,9:00:43,2435,0,22.27761362,0.267430526,242.1759108,3.014934231,1.217068359,24.87380219,6,1.420000017,1,2.840000033,21.42701721,24.87380219,20.3486805,11,420.5577698,392.3909912,15.60495853,19.1553421,61.64345169,75.66835022,499.7514343,1800.236084,212.3811493,101.2127304,0.7902565,-0.093345225,1,-0.219565243,2.737391472,1,0,0.159999996,111115,0.832919057,0.003014934,298.0238022,294.5770172,288.037767,1.379717761,3.155832835,31.18019662,12.02485452,23.1504097,2.845494038,0.24441502,1.938764476,0.906729562,0.154672902,24.51128517,0.617180099,63.84336422,381.8012806,0.037251782,ambient
ch01,ambient,sun,8,9:03:12,2583.5,0,27.65019741,0.269006876,426.7572812,3.011615013,1.20917621,24.87626076,6,1.420000017,1,2.840000033,21.43349457,24.87626076,20.34905434,11,650.053894,614.6369629,15.69173622,19.23769569,61.9622879,75.96429443,499.7821045,1799.804565,225.2604523,101.213768,-1.131069183,-0.085403025,1,-0.219565243,2.737391472,1,0,0.159999996,111115,0.832970174,0.003011615,298.0262608,294.5834946,287.968724,1.381142649,3.156295879,31.18445189,11.9467562,23.15487766,2.846262753,0.245731052,1.947119669,0.899143084,0.155516213,43.19371246,0.694324141,64.09970999,601.4933833,0.029466153,ambient
ch01,ambient,sun,9,9:05:48,2740,0,28.29047651,0.260683372,759.2812854,2.974157237,1.228851693,25.00278282,6,1.420000017,1,2.840000033,21.59622955,25.00278282,20.54925537,11,1000.932678,963.52771,15.77676392,19.27859306,61.68352509,75.37487793,499.7650452,1799.37146,232.344635,101.2186661,-5.688930511,-0.083762705,0.666666687,-0.219565243,2.737391472,1,0,0.159999996,111115,0.832941742,0.002974157,298.1527828,294.7462296,287.8994272,1.403800888,3.180205166,31.41915705,12.14056399,23.29950619,2.871244466,0.238766972,1.951353474,0.919890993,0.151054928,76.85343889,0.788022262,63.68750709,950.0797723,0.018964196,ambient
ch03,ambient,sun,6,8:49:07,1894,0,14.18990412,0.254796901,211.1339681,3.058422723,1.29063426,24.99814415,6,1.420000017,1,2.840000033,23.32010651,24.99814415,22.52644348,12,330.6602783,312.4993286,15.06331158,18.66218376,53.02841568,65.69776917,500.381073,1799.759277,151.3983765,101.2042084,0.403486967,-0.339733571,1,-0.219565243,2.737391472,1,0,0.159999996,111115,0.833968455,0.003058423,298.1481441,296.4701065,287.9614779,1.588483569,3.179325794,31.41495641,12.75277265,24.15912533,3.023722305,0.233819286,1.888691534,1.135030771,0.147887306,21.3676461,0.675630149,61.79089123,305.7541278,0.02867686,ambient
ch03,ambient,sun,7,8:51:36,2043,0,18.02077848,0.258654952,269.9061232,3.095234204,1.288177286,25.04118538,6,1.420000017,1,2.840000033,23.33968353,25.04118538,22.52759933,12,420.0357971,396.9549561,15.12536621,18.76702309,53.18437576,65.98930359,500.4006653,1799.376709,157.0912933,101.2049789,0.003981352,-0.340883702,1,-0.219565243,2.737391472,1,0,0.159999996,111115,0.834001109,0.003095234,298.1911854,296.4896835,287.900267,1.565213973,3.187493463,31.49542143,12.72839834,24.19043446,3.029406975,0.23706417,1.899316176,1.130090799,0.149964574,27.31584352,0.679941437,62.00510093,388.388741,0.028769634,ambient
ch03,ambient,sun,10,8:59:17,2504,0,25.72314636,0.19753373,922.8395728,2.511287884,1.341839784,25.07068443,6,1.420000017,1,2.840000033,23.10838127,25.07068443,22.13248444,12,1200.473267,1166.113892,15.33567238,18.29215431,54.68294144,65.22497559,500.3279724,1800.282349,166.0238342,101.2052536,-5.101059914,-0.302883595,1,-0.219565243,2.737391472,1,0,0.159999996,111115,0.833879954,0.002511288,298.2206844,296.2583813,288.0451693,1.837194255,3.1931019,31.55075242,13.25859811,24.08953285,3.011120075,0.184687923,1.851262116,1.159857959,0.116519196,93.396213,0.79138031,59.7055237,1153.88634,0.013309924,ambient
ch03,ambient,sun,11,9:01:52,2659.5,0,25.75740805,0.173141883,1478.720066,2.263080397,1.368668128,25.09357262,6,1.420000017,1,2.840000033,23.09637642,25.09357262,22.13457298,12,1800.533447,1764.855957,15.40463352,18.06945038,54.97077942,64.48006439,500.339325,1799.979736,165.0110626,101.2090149,-9.924546242,-0.29419753,1,-0.219565243,2.737391472,1,0,0.159999996,111115,0.833898875,0.00226308,298.2435726,296.2463764,287.9967514,1.961532231,3.197459401,31.59263435,13.52318397,24.09497452,3.012103828,0.163192763,1.828791272,1.183312555,0.102844997,149.6598012,0.837870116,58.62747706,1752.612119,0.008616235,ambient
ch03,ambient,sun,1,8:36:42,1149.5,0,14.47629873,0.15141913,234.5017407,2.141014538,1.47017552,25.19721603,6,1.420000017,1,2.840000033,23.39938736,25.19721603,22.51922035,12,420.3717346,401.980072,14.7414608,17.26458359,51.64266968,60.48173904,500.3444519,1800.406982,121.4213943,101.1944962,0.248373777,-0.326773137,1,-0.219565243,2.737391472,1,0,0.159999996,111115,0.83390742,0.002141015,298.347216,296.5493874,288.0651107,2.05205111,3.217256358,31.79279981,14.52821622,24.2983017,3.0490636,0.143754623,1.747080837,1.301982763,0.090505184,23.7302855,0.583366582,55.52560049,395.0987329,0.020344413,ambient
ch03,ambient,sun,2,8:39:11,1298,0,-0.537111907,0.160170144,53.61683816,2.17572884,1.416791749,24.98485374,6,1.420000017,1,2.840000033,23.05488586,24.98485374,22.13452911,12,48.64738464,49.1631813,14.82790756,17.39149284,53.04089737,62.21109772,500.3671265,1799.522461,123.388504,101.1998062,1.081686735,-0.32538268,1,-0.219565243,2.737391472,1,0,0.159999996,111115,0.833945211,0.002175729,298.1348537,296.2048859,287.9235873,2.015804492,3.176807455,31.39143812,13.99994528,24.0198698,2.998551082,0.151619137,1.760015706,1.238535376,0.095494825,5.426013631,1.090589273,56.72749961,49.41849858,-0.006165508,ambient
ch03,ambient,sun,3,8:41:40,1447.5,0,1.856340081,0.181377009,78.30299459,2.358025153,1.365509248,24.86337662,6,1.420000017,1,2.840000033,23.00244331,24.86337662,22.13370323,12,100.0041962,97.50247192,14.89399242,17.6716423,53.44644928,63.41392899,500.3557129,1799.287842,131.7252197,101.1994629,1.100691557,-0.331125706,1,-0.219565243,2.737391472,1,0,0.159999996,111115,0.833926188,0.002358025,298.0133766,296.1524433,287.8860483,1.929903062,3.153869957,31.1648883,13.493246,23.93290997,2.982925693,0.170488722,1.78836071,1.194564984,0.107482975,7.924220995,0.803087276,58.28419554,96.62005676,0.011198015,ambient
ch03,ambient,sun,4,8:44:09,1596,0,4.657663757,0.210391777,104.0454914,2.652886044,1.336770334,24.92298317,6,1.420000017,1,2.840000033,23.25835991,24.92298317,22.52927399,12,150.4229736,144.3781128,14.94273949,18.06664276,52.79806519,63.8359375,500.3273926,1798.865112,134.8766937,101.1995697,0.916960478,-0.338106602,1,-0.219565243,2.737391472,1,0,0.159999996,111115,0.833878988,0.002652886,298.0729832,296.4083599,287.8184115,1.800802716,3.165106807,31.27589195,13.20924919,24.09067154,3.011325906,0.195880625,1.828336473,1.182989432,0.123651361,10.52935896,0.720645875,59.68375002,142.1640825,0.019553943,ambient
ch03,ambient,sun,5,8:46:38,1745.5,0,9.023557743,0.238405563,150.1660247,2.914894378,1.307857722,24.96447182,6,1.420000017,1,2.840000033,23.29508591,24.96447182,22.52710152,12,230.5341187,218.9482422,14.99824238,18.42921066,52.87853622,64.97492981,500.3558655,1800.208374,143.3343201,101.20298,0.717726469,-0.338541478,1,-0.219565243,2.737391472,1,0,0.159999996,111115,0.833926442,0.002914894,298.1144718,296.4450859,288.0333334,1.66562581,3.172948761,31.35232539,12.92311473,24.12977886,3.018402456,0.219942365,1.865091039,1.153311418,0.139011545,15.1972492,0.685851703,61.00250788,214.658875,0.025643461,ambient
ch03,ambient,sun,8,8:54:05,2192,0,23.5057111,0.25074906,447.5257232,3.029201932,1.297136695,25.08211517,6,1.420000017,1,2.840000033,23.35685539,25.08211517,22.52602005,12,650.3881836,619.9484253,15.19020176,18.75465393,53.35916138,65.88013458,500.3389282,1798.937134,154.5039673,101.209053,-1.254136324,-0.337769002,1,-0.219565243,2.737391472,1,0,0.159999996,111115,0.833898214,0.003029202,298.2321152,296.5068554,287.829935,1.595532698,3.19527746,31.57106369,12.81640976,24.21948528,3.03468997,0.230406066,1.898140764,1.136549205,0.14570302,45.29365466,0.721875732,61.73517805,608.774936,0.023836876,ambient
ch03,ambient,sun,9,8:56:41,2348.5,0,25.22634038,0.228347423,759.8100906,2.833682003,1.322831102,25.12911034,6,1.420000017,1,2.840000033,23.36447906,25.12911034,22.52636528,12,1000.595398,967.06073,15.25482655,18.58951187,53.56087494,65.26921082,500.3779907,1798.59375,153.6290588,101.20784,-3.659165621,-0.323551625,0.666666687,-0.219565243,2.737391472,1,0,0.159999996,111115,0.833963318,0.002833682,298.2791103,296.5144791,287.7749936,1.691562614,3.204235444,31.65995288,13.07044101,24.2467947,3.039663626,0.211353733,1.881404343,1.158259283,0.133524518,76.89873805,0.785690151,60.80373073,955.0693359,0.016060149,ambient
